<?xml version="1.0" encoding="UTF-8" standalone="no"?>
<svg width="226.483mm" height="170.039mm"
 viewBox="0 0 642 482"
 xmlns="http://www.w3.org/2000/svg" xmlns:xlink="http://www.w3.org/1999/xlink"  version="1.2" baseProfile="tiny">
<title>Qt SVG Document</title>
<desc>Generated with Qt</desc>
<defs>
</defs>
<g fill="none" stroke="black" stroke-width="1" fill-rule="evenodd" stroke-linecap="square" stroke-linejoin="bevel" >

<g fill="none" stroke="#000000" stroke-opacity="1" stroke-width="1" stroke-linecap="square" stroke-linejoin="bevel" transform="matrix(1,0,0,1,0,0)"
font-family="Ubuntu" font-size="11" font-weight="400" font-style="normal" 
>
</g>

<g fill="none" stroke="#000000" stroke-opacity="1" stroke-width="1" stroke-linecap="square" stroke-linejoin="bevel" transform="matrix(1.00313,0,0,1.00313,0,0)"
font-family="Ubuntu" font-size="11" font-weight="400" font-style="normal" 
>
</g>

<g fill="none" stroke="#a0a0a4" stroke-opacity="1" stroke-dasharray="0.5,1" stroke-dashoffset="0" stroke-width="0.5" stroke-linecap="round" stroke-linejoin="round" transform="matrix(1.00313,0,0,1.00313,0,0)"
font-family="Ubuntu" font-size="11" font-weight="400" font-style="normal" 
>
<polyline fill="none" vector-effect="none" points="45.5,450.5 618.5,450.5 " />
</g>

<g fill="none" stroke="#000000" stroke-opacity="1" stroke-width="1" stroke-linecap="round" stroke-linejoin="round" transform="matrix(1.00313,0,0,1.00313,0,0)"
font-family="Ubuntu" font-size="11" font-weight="400" font-style="normal" 
>
<polyline fill="none" vector-effect="none" points="45.5,450.5 51.5,450.5 " />
<polyline fill="none" vector-effect="none" points="618.5,450.5 612.5,450.5 " />
</g>

<g fill="none" stroke="#000000" stroke-opacity="1" stroke-width="1" stroke-linecap="square" stroke-linejoin="bevel" transform="matrix(1.00313,0,0,1.00313,0,0)"
font-family="Ubuntu" font-size="11" font-weight="400" font-style="normal" 
>
</g>

<g fill="none" stroke="#000000" stroke-opacity="1" stroke-width="1" stroke-linecap="square" stroke-linejoin="bevel" transform="matrix(1.00313,0,0,1.00313,12.0375,455.92)"
font-family="Ubuntu" font-size="11" font-weight="400" font-style="normal" 
>
</g>

<g fill="none" stroke="#000000" stroke-opacity="1" stroke-width="1" stroke-linecap="square" stroke-linejoin="bevel" transform="matrix(1.00313,0,0,1.00313,12.0375,455.92)"
font-family="Ubuntu" font-size="11" font-weight="400" font-style="normal" 
>
</g>

<g fill="none" stroke="#000000" stroke-opacity="1" stroke-width="1" stroke-linecap="square" stroke-linejoin="bevel" transform="matrix(1.00313,0,0,1.00313,12.0375,455.92)"
font-family="Ubuntu" font-size="11" font-weight="400" font-style="normal" 
>
</g>

<g fill="none" stroke="#000000" stroke-opacity="1" stroke-width="1" stroke-linecap="square" stroke-linejoin="bevel" transform="matrix(1.00313,0,0,1.00313,12.0375,455.92)"
font-family="Ubuntu" font-size="11" font-weight="400" font-style="normal" 
>
</g>

<g fill="none" stroke="#000000" stroke-opacity="1" stroke-width="1" stroke-linecap="square" stroke-linejoin="bevel" transform="matrix(1.00313,0,0,1.00313,12.0375,455.92)"
font-family="Ubuntu" font-size="11" font-weight="400" font-style="normal" 
>
</g>

<g fill="none" stroke="#000000" stroke-opacity="1" stroke-width="1" stroke-linecap="square" stroke-linejoin="bevel" transform="matrix(1.00313,0,0,1.00313,12.0375,455.92)"
font-family="Sans" font-size="9" font-weight="400" font-style="normal" 
>
<text fill="#000000" fill-opacity="1" stroke="none" xml:space="preserve" x="0" y="0" font-family="Sans" font-size="9" font-weight="400" font-style="normal" 
 > 160</text>
</g>

<g fill="none" stroke="#000000" stroke-opacity="1" stroke-width="1" stroke-linecap="square" stroke-linejoin="bevel" transform="matrix(1.00313,0,0,1.00313,12.0375,455.92)"
font-family="Ubuntu" font-size="11" font-weight="400" font-style="normal" 
>
</g>

<g fill="none" stroke="#000000" stroke-opacity="1" stroke-width="1" stroke-linecap="square" stroke-linejoin="bevel" transform="matrix(1.00313,0,0,1.00313,0,0)"
font-family="Ubuntu" font-size="11" font-weight="400" font-style="normal" 
>
</g>

<g fill="none" stroke="#a0a0a4" stroke-opacity="1" stroke-dasharray="0.5,1" stroke-dashoffset="0" stroke-width="0.5" stroke-linecap="round" stroke-linejoin="round" transform="matrix(1.00313,0,0,1.00313,0,0)"
font-family="Ubuntu" font-size="11" font-weight="400" font-style="normal" 
>
<polyline fill="none" vector-effect="none" points="45.5,395.5 618.5,395.5 " />
</g>

<g fill="none" stroke="#000000" stroke-opacity="1" stroke-width="1" stroke-linecap="round" stroke-linejoin="round" transform="matrix(1.00313,0,0,1.00313,0,0)"
font-family="Ubuntu" font-size="11" font-weight="400" font-style="normal" 
>
<polyline fill="none" vector-effect="none" points="45.5,395.5 51.5,395.5 " />
<polyline fill="none" vector-effect="none" points="618.5,395.5 612.5,395.5 " />
</g>

<g fill="none" stroke="#000000" stroke-opacity="1" stroke-width="1" stroke-linecap="square" stroke-linejoin="bevel" transform="matrix(1.00313,0,0,1.00313,0,0)"
font-family="Ubuntu" font-size="11" font-weight="400" font-style="normal" 
>
</g>

<g fill="none" stroke="#000000" stroke-opacity="1" stroke-width="1" stroke-linecap="square" stroke-linejoin="bevel" transform="matrix(1.00313,0,0,1.00313,12.0375,401.752)"
font-family="Ubuntu" font-size="11" font-weight="400" font-style="normal" 
>
</g>

<g fill="none" stroke="#000000" stroke-opacity="1" stroke-width="1" stroke-linecap="square" stroke-linejoin="bevel" transform="matrix(1.00313,0,0,1.00313,12.0375,401.752)"
font-family="Ubuntu" font-size="11" font-weight="400" font-style="normal" 
>
</g>

<g fill="none" stroke="#000000" stroke-opacity="1" stroke-width="1" stroke-linecap="square" stroke-linejoin="bevel" transform="matrix(1.00313,0,0,1.00313,12.0375,401.752)"
font-family="Ubuntu" font-size="11" font-weight="400" font-style="normal" 
>
</g>

<g fill="none" stroke="#000000" stroke-opacity="1" stroke-width="1" stroke-linecap="square" stroke-linejoin="bevel" transform="matrix(1.00313,0,0,1.00313,12.0375,401.752)"
font-family="Ubuntu" font-size="11" font-weight="400" font-style="normal" 
>
</g>

<g fill="none" stroke="#000000" stroke-opacity="1" stroke-width="1" stroke-linecap="square" stroke-linejoin="bevel" transform="matrix(1.00313,0,0,1.00313,12.0375,401.752)"
font-family="Ubuntu" font-size="11" font-weight="400" font-style="normal" 
>
</g>

<g fill="none" stroke="#000000" stroke-opacity="1" stroke-width="1" stroke-linecap="square" stroke-linejoin="bevel" transform="matrix(1.00313,0,0,1.00313,12.0375,401.752)"
font-family="Sans" font-size="9" font-weight="400" font-style="normal" 
>
<text fill="#000000" fill-opacity="1" stroke="none" xml:space="preserve" x="0" y="0" font-family="Sans" font-size="9" font-weight="400" font-style="normal" 
 > 165</text>
</g>

<g fill="none" stroke="#000000" stroke-opacity="1" stroke-width="1" stroke-linecap="square" stroke-linejoin="bevel" transform="matrix(1.00313,0,0,1.00313,12.0375,401.752)"
font-family="Ubuntu" font-size="11" font-weight="400" font-style="normal" 
>
</g>

<g fill="none" stroke="#000000" stroke-opacity="1" stroke-width="1" stroke-linecap="square" stroke-linejoin="bevel" transform="matrix(1.00313,0,0,1.00313,0,0)"
font-family="Ubuntu" font-size="11" font-weight="400" font-style="normal" 
>
</g>

<g fill="none" stroke="#a0a0a4" stroke-opacity="1" stroke-dasharray="0.5,1" stroke-dashoffset="0" stroke-width="0.5" stroke-linecap="round" stroke-linejoin="round" transform="matrix(1.00313,0,0,1.00313,0,0)"
font-family="Ubuntu" font-size="11" font-weight="400" font-style="normal" 
>
<polyline fill="none" vector-effect="none" points="45.5,341.5 618.5,341.5 " />
</g>

<g fill="none" stroke="#000000" stroke-opacity="1" stroke-width="1" stroke-linecap="round" stroke-linejoin="round" transform="matrix(1.00313,0,0,1.00313,0,0)"
font-family="Ubuntu" font-size="11" font-weight="400" font-style="normal" 
>
<polyline fill="none" vector-effect="none" points="45.5,341.5 51.5,341.5 " />
<polyline fill="none" vector-effect="none" points="618.5,341.5 612.5,341.5 " />
</g>

<g fill="none" stroke="#000000" stroke-opacity="1" stroke-width="1" stroke-linecap="square" stroke-linejoin="bevel" transform="matrix(1.00313,0,0,1.00313,0,0)"
font-family="Ubuntu" font-size="11" font-weight="400" font-style="normal" 
>
</g>

<g fill="none" stroke="#000000" stroke-opacity="1" stroke-width="1" stroke-linecap="square" stroke-linejoin="bevel" transform="matrix(1.00313,0,0,1.00313,12.0375,346.58)"
font-family="Ubuntu" font-size="11" font-weight="400" font-style="normal" 
>
</g>

<g fill="none" stroke="#000000" stroke-opacity="1" stroke-width="1" stroke-linecap="square" stroke-linejoin="bevel" transform="matrix(1.00313,0,0,1.00313,12.0375,346.58)"
font-family="Ubuntu" font-size="11" font-weight="400" font-style="normal" 
>
</g>

<g fill="none" stroke="#000000" stroke-opacity="1" stroke-width="1" stroke-linecap="square" stroke-linejoin="bevel" transform="matrix(1.00313,0,0,1.00313,12.0375,346.58)"
font-family="Ubuntu" font-size="11" font-weight="400" font-style="normal" 
>
</g>

<g fill="none" stroke="#000000" stroke-opacity="1" stroke-width="1" stroke-linecap="square" stroke-linejoin="bevel" transform="matrix(1.00313,0,0,1.00313,12.0375,346.58)"
font-family="Ubuntu" font-size="11" font-weight="400" font-style="normal" 
>
</g>

<g fill="none" stroke="#000000" stroke-opacity="1" stroke-width="1" stroke-linecap="square" stroke-linejoin="bevel" transform="matrix(1.00313,0,0,1.00313,12.0375,346.58)"
font-family="Ubuntu" font-size="11" font-weight="400" font-style="normal" 
>
</g>

<g fill="none" stroke="#000000" stroke-opacity="1" stroke-width="1" stroke-linecap="square" stroke-linejoin="bevel" transform="matrix(1.00313,0,0,1.00313,12.0375,346.58)"
font-family="Sans" font-size="9" font-weight="400" font-style="normal" 
>
<text fill="#000000" fill-opacity="1" stroke="none" xml:space="preserve" x="0" y="0" font-family="Sans" font-size="9" font-weight="400" font-style="normal" 
 > 170</text>
</g>

<g fill="none" stroke="#000000" stroke-opacity="1" stroke-width="1" stroke-linecap="square" stroke-linejoin="bevel" transform="matrix(1.00313,0,0,1.00313,12.0375,346.58)"
font-family="Ubuntu" font-size="11" font-weight="400" font-style="normal" 
>
</g>

<g fill="none" stroke="#000000" stroke-opacity="1" stroke-width="1" stroke-linecap="square" stroke-linejoin="bevel" transform="matrix(1.00313,0,0,1.00313,0,0)"
font-family="Ubuntu" font-size="11" font-weight="400" font-style="normal" 
>
</g>

<g fill="none" stroke="#a0a0a4" stroke-opacity="1" stroke-dasharray="0.5,1" stroke-dashoffset="0" stroke-width="0.5" stroke-linecap="round" stroke-linejoin="round" transform="matrix(1.00313,0,0,1.00313,0,0)"
font-family="Ubuntu" font-size="11" font-weight="400" font-style="normal" 
>
<polyline fill="none" vector-effect="none" points="45.5,286.5 618.5,286.5 " />
</g>

<g fill="none" stroke="#000000" stroke-opacity="1" stroke-width="1" stroke-linecap="round" stroke-linejoin="round" transform="matrix(1.00313,0,0,1.00313,0,0)"
font-family="Ubuntu" font-size="11" font-weight="400" font-style="normal" 
>
<polyline fill="none" vector-effect="none" points="45.5,286.5 51.5,286.5 " />
<polyline fill="none" vector-effect="none" points="618.5,286.5 612.5,286.5 " />
</g>

<g fill="none" stroke="#000000" stroke-opacity="1" stroke-width="1" stroke-linecap="square" stroke-linejoin="bevel" transform="matrix(1.00313,0,0,1.00313,0,0)"
font-family="Ubuntu" font-size="11" font-weight="400" font-style="normal" 
>
</g>

<g fill="none" stroke="#000000" stroke-opacity="1" stroke-width="1" stroke-linecap="square" stroke-linejoin="bevel" transform="matrix(1.00313,0,0,1.00313,12.0375,292.411)"
font-family="Ubuntu" font-size="11" font-weight="400" font-style="normal" 
>
</g>

<g fill="none" stroke="#000000" stroke-opacity="1" stroke-width="1" stroke-linecap="square" stroke-linejoin="bevel" transform="matrix(1.00313,0,0,1.00313,12.0375,292.411)"
font-family="Ubuntu" font-size="11" font-weight="400" font-style="normal" 
>
</g>

<g fill="none" stroke="#000000" stroke-opacity="1" stroke-width="1" stroke-linecap="square" stroke-linejoin="bevel" transform="matrix(1.00313,0,0,1.00313,12.0375,292.411)"
font-family="Ubuntu" font-size="11" font-weight="400" font-style="normal" 
>
</g>

<g fill="none" stroke="#000000" stroke-opacity="1" stroke-width="1" stroke-linecap="square" stroke-linejoin="bevel" transform="matrix(1.00313,0,0,1.00313,12.0375,292.411)"
font-family="Ubuntu" font-size="11" font-weight="400" font-style="normal" 
>
</g>

<g fill="none" stroke="#000000" stroke-opacity="1" stroke-width="1" stroke-linecap="square" stroke-linejoin="bevel" transform="matrix(1.00313,0,0,1.00313,12.0375,292.411)"
font-family="Ubuntu" font-size="11" font-weight="400" font-style="normal" 
>
</g>

<g fill="none" stroke="#000000" stroke-opacity="1" stroke-width="1" stroke-linecap="square" stroke-linejoin="bevel" transform="matrix(1.00313,0,0,1.00313,12.0375,292.411)"
font-family="Sans" font-size="9" font-weight="400" font-style="normal" 
>
<text fill="#000000" fill-opacity="1" stroke="none" xml:space="preserve" x="0" y="0" font-family="Sans" font-size="9" font-weight="400" font-style="normal" 
 > 175</text>
</g>

<g fill="none" stroke="#000000" stroke-opacity="1" stroke-width="1" stroke-linecap="square" stroke-linejoin="bevel" transform="matrix(1.00313,0,0,1.00313,12.0375,292.411)"
font-family="Ubuntu" font-size="11" font-weight="400" font-style="normal" 
>
</g>

<g fill="none" stroke="#000000" stroke-opacity="1" stroke-width="1" stroke-linecap="square" stroke-linejoin="bevel" transform="matrix(1.00313,0,0,1.00313,0,0)"
font-family="Ubuntu" font-size="11" font-weight="400" font-style="normal" 
>
</g>

<g fill="none" stroke="#a0a0a4" stroke-opacity="1" stroke-dasharray="0.5,1" stroke-dashoffset="0" stroke-width="0.5" stroke-linecap="round" stroke-linejoin="round" transform="matrix(1.00313,0,0,1.00313,0,0)"
font-family="Ubuntu" font-size="11" font-weight="400" font-style="normal" 
>
<polyline fill="none" vector-effect="none" points="45.5,232.5 618.5,232.5 " />
</g>

<g fill="none" stroke="#000000" stroke-opacity="1" stroke-width="1" stroke-linecap="round" stroke-linejoin="round" transform="matrix(1.00313,0,0,1.00313,0,0)"
font-family="Ubuntu" font-size="11" font-weight="400" font-style="normal" 
>
<polyline fill="none" vector-effect="none" points="45.5,232.5 51.5,232.5 " />
<polyline fill="none" vector-effect="none" points="618.5,232.5 612.5,232.5 " />
</g>

<g fill="none" stroke="#000000" stroke-opacity="1" stroke-width="1" stroke-linecap="square" stroke-linejoin="bevel" transform="matrix(1.00313,0,0,1.00313,0,0)"
font-family="Ubuntu" font-size="11" font-weight="400" font-style="normal" 
>
</g>

<g fill="none" stroke="#000000" stroke-opacity="1" stroke-width="1" stroke-linecap="square" stroke-linejoin="bevel" transform="matrix(1.00313,0,0,1.00313,12.0375,238.242)"
font-family="Ubuntu" font-size="11" font-weight="400" font-style="normal" 
>
</g>

<g fill="none" stroke="#000000" stroke-opacity="1" stroke-width="1" stroke-linecap="square" stroke-linejoin="bevel" transform="matrix(1.00313,0,0,1.00313,12.0375,238.242)"
font-family="Ubuntu" font-size="11" font-weight="400" font-style="normal" 
>
</g>

<g fill="none" stroke="#000000" stroke-opacity="1" stroke-width="1" stroke-linecap="square" stroke-linejoin="bevel" transform="matrix(1.00313,0,0,1.00313,12.0375,238.242)"
font-family="Ubuntu" font-size="11" font-weight="400" font-style="normal" 
>
</g>

<g fill="none" stroke="#000000" stroke-opacity="1" stroke-width="1" stroke-linecap="square" stroke-linejoin="bevel" transform="matrix(1.00313,0,0,1.00313,12.0375,238.242)"
font-family="Ubuntu" font-size="11" font-weight="400" font-style="normal" 
>
</g>

<g fill="none" stroke="#000000" stroke-opacity="1" stroke-width="1" stroke-linecap="square" stroke-linejoin="bevel" transform="matrix(1.00313,0,0,1.00313,12.0375,238.242)"
font-family="Ubuntu" font-size="11" font-weight="400" font-style="normal" 
>
</g>

<g fill="none" stroke="#000000" stroke-opacity="1" stroke-width="1" stroke-linecap="square" stroke-linejoin="bevel" transform="matrix(1.00313,0,0,1.00313,12.0375,238.242)"
font-family="Sans" font-size="9" font-weight="400" font-style="normal" 
>
<text fill="#000000" fill-opacity="1" stroke="none" xml:space="preserve" x="0" y="0" font-family="Sans" font-size="9" font-weight="400" font-style="normal" 
 > 180</text>
</g>

<g fill="none" stroke="#000000" stroke-opacity="1" stroke-width="1" stroke-linecap="square" stroke-linejoin="bevel" transform="matrix(1.00313,0,0,1.00313,12.0375,238.242)"
font-family="Ubuntu" font-size="11" font-weight="400" font-style="normal" 
>
</g>

<g fill="none" stroke="#000000" stroke-opacity="1" stroke-width="1" stroke-linecap="square" stroke-linejoin="bevel" transform="matrix(1.00313,0,0,1.00313,0,0)"
font-family="Ubuntu" font-size="11" font-weight="400" font-style="normal" 
>
</g>

<g fill="none" stroke="#a0a0a4" stroke-opacity="1" stroke-dasharray="0.5,1" stroke-dashoffset="0" stroke-width="0.5" stroke-linecap="round" stroke-linejoin="round" transform="matrix(1.00313,0,0,1.00313,0,0)"
font-family="Ubuntu" font-size="11" font-weight="400" font-style="normal" 
>
<polyline fill="none" vector-effect="none" points="45.5,178.5 618.5,178.5 " />
</g>

<g fill="none" stroke="#000000" stroke-opacity="1" stroke-width="1" stroke-linecap="round" stroke-linejoin="round" transform="matrix(1.00313,0,0,1.00313,0,0)"
font-family="Ubuntu" font-size="11" font-weight="400" font-style="normal" 
>
<polyline fill="none" vector-effect="none" points="45.5,178.5 51.5,178.5 " />
<polyline fill="none" vector-effect="none" points="618.5,178.5 612.5,178.5 " />
</g>

<g fill="none" stroke="#000000" stroke-opacity="1" stroke-width="1" stroke-linecap="square" stroke-linejoin="bevel" transform="matrix(1.00313,0,0,1.00313,0,0)"
font-family="Ubuntu" font-size="11" font-weight="400" font-style="normal" 
>
</g>

<g fill="none" stroke="#000000" stroke-opacity="1" stroke-width="1" stroke-linecap="square" stroke-linejoin="bevel" transform="matrix(1.00313,0,0,1.00313,12.0375,183.07)"
font-family="Ubuntu" font-size="11" font-weight="400" font-style="normal" 
>
</g>

<g fill="none" stroke="#000000" stroke-opacity="1" stroke-width="1" stroke-linecap="square" stroke-linejoin="bevel" transform="matrix(1.00313,0,0,1.00313,12.0375,183.07)"
font-family="Ubuntu" font-size="11" font-weight="400" font-style="normal" 
>
</g>

<g fill="none" stroke="#000000" stroke-opacity="1" stroke-width="1" stroke-linecap="square" stroke-linejoin="bevel" transform="matrix(1.00313,0,0,1.00313,12.0375,183.07)"
font-family="Ubuntu" font-size="11" font-weight="400" font-style="normal" 
>
</g>

<g fill="none" stroke="#000000" stroke-opacity="1" stroke-width="1" stroke-linecap="square" stroke-linejoin="bevel" transform="matrix(1.00313,0,0,1.00313,12.0375,183.07)"
font-family="Ubuntu" font-size="11" font-weight="400" font-style="normal" 
>
</g>

<g fill="none" stroke="#000000" stroke-opacity="1" stroke-width="1" stroke-linecap="square" stroke-linejoin="bevel" transform="matrix(1.00313,0,0,1.00313,12.0375,183.07)"
font-family="Ubuntu" font-size="11" font-weight="400" font-style="normal" 
>
</g>

<g fill="none" stroke="#000000" stroke-opacity="1" stroke-width="1" stroke-linecap="square" stroke-linejoin="bevel" transform="matrix(1.00313,0,0,1.00313,12.0375,183.07)"
font-family="Sans" font-size="9" font-weight="400" font-style="normal" 
>
<text fill="#000000" fill-opacity="1" stroke="none" xml:space="preserve" x="0" y="0" font-family="Sans" font-size="9" font-weight="400" font-style="normal" 
 > 185</text>
</g>

<g fill="none" stroke="#000000" stroke-opacity="1" stroke-width="1" stroke-linecap="square" stroke-linejoin="bevel" transform="matrix(1.00313,0,0,1.00313,12.0375,183.07)"
font-family="Ubuntu" font-size="11" font-weight="400" font-style="normal" 
>
</g>

<g fill="none" stroke="#000000" stroke-opacity="1" stroke-width="1" stroke-linecap="square" stroke-linejoin="bevel" transform="matrix(1.00313,0,0,1.00313,0,0)"
font-family="Ubuntu" font-size="11" font-weight="400" font-style="normal" 
>
</g>

<g fill="none" stroke="#a0a0a4" stroke-opacity="1" stroke-dasharray="0.5,1" stroke-dashoffset="0" stroke-width="0.5" stroke-linecap="round" stroke-linejoin="round" transform="matrix(1.00313,0,0,1.00313,0,0)"
font-family="Ubuntu" font-size="11" font-weight="400" font-style="normal" 
>
<polyline fill="none" vector-effect="none" points="45.5,123.5 618.5,123.5 " />
</g>

<g fill="none" stroke="#000000" stroke-opacity="1" stroke-width="1" stroke-linecap="round" stroke-linejoin="round" transform="matrix(1.00313,0,0,1.00313,0,0)"
font-family="Ubuntu" font-size="11" font-weight="400" font-style="normal" 
>
<polyline fill="none" vector-effect="none" points="45.5,123.5 51.5,123.5 " />
<polyline fill="none" vector-effect="none" points="618.5,123.5 612.5,123.5 " />
</g>

<g fill="none" stroke="#000000" stroke-opacity="1" stroke-width="1" stroke-linecap="square" stroke-linejoin="bevel" transform="matrix(1.00313,0,0,1.00313,0,0)"
font-family="Ubuntu" font-size="11" font-weight="400" font-style="normal" 
>
</g>

<g fill="none" stroke="#000000" stroke-opacity="1" stroke-width="1" stroke-linecap="square" stroke-linejoin="bevel" transform="matrix(1.00313,0,0,1.00313,12.0375,128.902)"
font-family="Ubuntu" font-size="11" font-weight="400" font-style="normal" 
>
</g>

<g fill="none" stroke="#000000" stroke-opacity="1" stroke-width="1" stroke-linecap="square" stroke-linejoin="bevel" transform="matrix(1.00313,0,0,1.00313,12.0375,128.902)"
font-family="Ubuntu" font-size="11" font-weight="400" font-style="normal" 
>
</g>

<g fill="none" stroke="#000000" stroke-opacity="1" stroke-width="1" stroke-linecap="square" stroke-linejoin="bevel" transform="matrix(1.00313,0,0,1.00313,12.0375,128.902)"
font-family="Ubuntu" font-size="11" font-weight="400" font-style="normal" 
>
</g>

<g fill="none" stroke="#000000" stroke-opacity="1" stroke-width="1" stroke-linecap="square" stroke-linejoin="bevel" transform="matrix(1.00313,0,0,1.00313,12.0375,128.902)"
font-family="Ubuntu" font-size="11" font-weight="400" font-style="normal" 
>
</g>

<g fill="none" stroke="#000000" stroke-opacity="1" stroke-width="1" stroke-linecap="square" stroke-linejoin="bevel" transform="matrix(1.00313,0,0,1.00313,12.0375,128.902)"
font-family="Ubuntu" font-size="11" font-weight="400" font-style="normal" 
>
</g>

<g fill="none" stroke="#000000" stroke-opacity="1" stroke-width="1" stroke-linecap="square" stroke-linejoin="bevel" transform="matrix(1.00313,0,0,1.00313,12.0375,128.902)"
font-family="Sans" font-size="9" font-weight="400" font-style="normal" 
>
<text fill="#000000" fill-opacity="1" stroke="none" xml:space="preserve" x="0" y="0" font-family="Sans" font-size="9" font-weight="400" font-style="normal" 
 > 190</text>
</g>

<g fill="none" stroke="#000000" stroke-opacity="1" stroke-width="1" stroke-linecap="square" stroke-linejoin="bevel" transform="matrix(1.00313,0,0,1.00313,12.0375,128.902)"
font-family="Ubuntu" font-size="11" font-weight="400" font-style="normal" 
>
</g>

<g fill="none" stroke="#000000" stroke-opacity="1" stroke-width="1" stroke-linecap="square" stroke-linejoin="bevel" transform="matrix(1.00313,0,0,1.00313,0,0)"
font-family="Ubuntu" font-size="11" font-weight="400" font-style="normal" 
>
</g>

<g fill="none" stroke="#a0a0a4" stroke-opacity="1" stroke-dasharray="0.5,1" stroke-dashoffset="0" stroke-width="0.5" stroke-linecap="round" stroke-linejoin="round" transform="matrix(1.00313,0,0,1.00313,0,0)"
font-family="Ubuntu" font-size="11" font-weight="400" font-style="normal" 
>
<polyline fill="none" vector-effect="none" points="45.5,69.5 618.5,69.5 " />
</g>

<g fill="none" stroke="#000000" stroke-opacity="1" stroke-width="1" stroke-linecap="round" stroke-linejoin="round" transform="matrix(1.00313,0,0,1.00313,0,0)"
font-family="Ubuntu" font-size="11" font-weight="400" font-style="normal" 
>
<polyline fill="none" vector-effect="none" points="45.5,69.5 51.5,69.5 " />
<polyline fill="none" vector-effect="none" points="618.5,69.5 612.5,69.5 " />
</g>

<g fill="none" stroke="#000000" stroke-opacity="1" stroke-width="1" stroke-linecap="square" stroke-linejoin="bevel" transform="matrix(1.00313,0,0,1.00313,0,0)"
font-family="Ubuntu" font-size="11" font-weight="400" font-style="normal" 
>
</g>

<g fill="none" stroke="#000000" stroke-opacity="1" stroke-width="1" stroke-linecap="square" stroke-linejoin="bevel" transform="matrix(1.00313,0,0,1.00313,12.0375,74.7328)"
font-family="Ubuntu" font-size="11" font-weight="400" font-style="normal" 
>
</g>

<g fill="none" stroke="#000000" stroke-opacity="1" stroke-width="1" stroke-linecap="square" stroke-linejoin="bevel" transform="matrix(1.00313,0,0,1.00313,12.0375,74.7328)"
font-family="Ubuntu" font-size="11" font-weight="400" font-style="normal" 
>
</g>

<g fill="none" stroke="#000000" stroke-opacity="1" stroke-width="1" stroke-linecap="square" stroke-linejoin="bevel" transform="matrix(1.00313,0,0,1.00313,12.0375,74.7328)"
font-family="Ubuntu" font-size="11" font-weight="400" font-style="normal" 
>
</g>

<g fill="none" stroke="#000000" stroke-opacity="1" stroke-width="1" stroke-linecap="square" stroke-linejoin="bevel" transform="matrix(1.00313,0,0,1.00313,12.0375,74.7328)"
font-family="Ubuntu" font-size="11" font-weight="400" font-style="normal" 
>
</g>

<g fill="none" stroke="#000000" stroke-opacity="1" stroke-width="1" stroke-linecap="square" stroke-linejoin="bevel" transform="matrix(1.00313,0,0,1.00313,12.0375,74.7328)"
font-family="Ubuntu" font-size="11" font-weight="400" font-style="normal" 
>
</g>

<g fill="none" stroke="#000000" stroke-opacity="1" stroke-width="1" stroke-linecap="square" stroke-linejoin="bevel" transform="matrix(1.00313,0,0,1.00313,12.0375,74.7328)"
font-family="Sans" font-size="9" font-weight="400" font-style="normal" 
>
<text fill="#000000" fill-opacity="1" stroke="none" xml:space="preserve" x="0" y="0" font-family="Sans" font-size="9" font-weight="400" font-style="normal" 
 > 195</text>
</g>

<g fill="none" stroke="#000000" stroke-opacity="1" stroke-width="1" stroke-linecap="square" stroke-linejoin="bevel" transform="matrix(1.00313,0,0,1.00313,12.0375,74.7328)"
font-family="Ubuntu" font-size="11" font-weight="400" font-style="normal" 
>
</g>

<g fill="none" stroke="#000000" stroke-opacity="1" stroke-width="1" stroke-linecap="square" stroke-linejoin="bevel" transform="matrix(1.00313,0,0,1.00313,0,0)"
font-family="Ubuntu" font-size="11" font-weight="400" font-style="normal" 
>
</g>

<g fill="none" stroke="#a0a0a4" stroke-opacity="1" stroke-dasharray="0.5,1" stroke-dashoffset="0" stroke-width="0.5" stroke-linecap="round" stroke-linejoin="round" transform="matrix(1.00313,0,0,1.00313,0,0)"
font-family="Ubuntu" font-size="11" font-weight="400" font-style="normal" 
>
<polyline fill="none" vector-effect="none" points="45.5,15.5 618.5,15.5 " />
</g>

<g fill="none" stroke="#000000" stroke-opacity="1" stroke-width="1" stroke-linecap="round" stroke-linejoin="round" transform="matrix(1.00313,0,0,1.00313,0,0)"
font-family="Ubuntu" font-size="11" font-weight="400" font-style="normal" 
>
<polyline fill="none" vector-effect="none" points="45.5,15.5 51.5,15.5 " />
<polyline fill="none" vector-effect="none" points="618.5,15.5 612.5,15.5 " />
</g>

<g fill="none" stroke="#000000" stroke-opacity="1" stroke-width="1" stroke-linecap="square" stroke-linejoin="bevel" transform="matrix(1.00313,0,0,1.00313,0,0)"
font-family="Ubuntu" font-size="11" font-weight="400" font-style="normal" 
>
</g>

<g fill="none" stroke="#000000" stroke-opacity="1" stroke-width="1" stroke-linecap="square" stroke-linejoin="bevel" transform="matrix(1.00313,0,0,1.00313,12.0375,19.5609)"
font-family="Ubuntu" font-size="11" font-weight="400" font-style="normal" 
>
</g>

<g fill="none" stroke="#000000" stroke-opacity="1" stroke-width="1" stroke-linecap="square" stroke-linejoin="bevel" transform="matrix(1.00313,0,0,1.00313,12.0375,19.5609)"
font-family="Ubuntu" font-size="11" font-weight="400" font-style="normal" 
>
</g>

<g fill="none" stroke="#000000" stroke-opacity="1" stroke-width="1" stroke-linecap="square" stroke-linejoin="bevel" transform="matrix(1.00313,0,0,1.00313,12.0375,19.5609)"
font-family="Ubuntu" font-size="11" font-weight="400" font-style="normal" 
>
</g>

<g fill="none" stroke="#000000" stroke-opacity="1" stroke-width="1" stroke-linecap="square" stroke-linejoin="bevel" transform="matrix(1.00313,0,0,1.00313,12.0375,19.5609)"
font-family="Ubuntu" font-size="11" font-weight="400" font-style="normal" 
>
</g>

<g fill="none" stroke="#000000" stroke-opacity="1" stroke-width="1" stroke-linecap="square" stroke-linejoin="bevel" transform="matrix(1.00313,0,0,1.00313,12.0375,19.5609)"
font-family="Ubuntu" font-size="11" font-weight="400" font-style="normal" 
>
</g>

<g fill="none" stroke="#000000" stroke-opacity="1" stroke-width="1" stroke-linecap="square" stroke-linejoin="bevel" transform="matrix(1.00313,0,0,1.00313,12.0375,19.5609)"
font-family="Sans" font-size="9" font-weight="400" font-style="normal" 
>
<text fill="#000000" fill-opacity="1" stroke="none" xml:space="preserve" x="0" y="0" font-family="Sans" font-size="9" font-weight="400" font-style="normal" 
 > 200</text>
</g>

<g fill="none" stroke="#000000" stroke-opacity="1" stroke-width="1" stroke-linecap="square" stroke-linejoin="bevel" transform="matrix(1.00313,0,0,1.00313,12.0375,19.5609)"
font-family="Ubuntu" font-size="11" font-weight="400" font-style="normal" 
>
</g>

<g fill="none" stroke="#000000" stroke-opacity="1" stroke-width="1" stroke-linecap="square" stroke-linejoin="bevel" transform="matrix(1.00313,0,0,1.00313,0,0)"
font-family="Ubuntu" font-size="11" font-weight="400" font-style="normal" 
>
</g>

<g fill="none" stroke="#a0a0a4" stroke-opacity="1" stroke-dasharray="0.5,1" stroke-dashoffset="0" stroke-width="0.5" stroke-linecap="round" stroke-linejoin="round" transform="matrix(1.00313,0,0,1.00313,0,0)"
font-family="Ubuntu" font-size="11" font-weight="400" font-style="normal" 
>
<polyline fill="none" vector-effect="none" points="45.5,450.5 45.5,15.5 " />
</g>

<g fill="none" stroke="#000000" stroke-opacity="1" stroke-width="1" stroke-linecap="round" stroke-linejoin="round" transform="matrix(1.00313,0,0,1.00313,0,0)"
font-family="Ubuntu" font-size="11" font-weight="400" font-style="normal" 
>
<polyline fill="none" vector-effect="none" points="45.5,450.5 45.5,444.5 " />
<polyline fill="none" vector-effect="none" points="45.5,15.5 45.5,21.5 " />
</g>

<g fill="none" stroke="#000000" stroke-opacity="1" stroke-width="1" stroke-linecap="square" stroke-linejoin="bevel" transform="matrix(1.00313,0,0,1.00313,0,0)"
font-family="Ubuntu" font-size="11" font-weight="400" font-style="normal" 
>
</g>

<g fill="none" stroke="#000000" stroke-opacity="1" stroke-width="1" stroke-linecap="square" stroke-linejoin="bevel" transform="matrix(1.00313,0,0,1.00313,40.6266,470.967)"
font-family="Ubuntu" font-size="11" font-weight="400" font-style="normal" 
>
</g>

<g fill="none" stroke="#000000" stroke-opacity="1" stroke-width="1" stroke-linecap="square" stroke-linejoin="bevel" transform="matrix(1.00313,0,0,1.00313,40.6266,470.967)"
font-family="Ubuntu" font-size="11" font-weight="400" font-style="normal" 
>
</g>

<g fill="none" stroke="#000000" stroke-opacity="1" stroke-width="1" stroke-linecap="square" stroke-linejoin="bevel" transform="matrix(1.00313,0,0,1.00313,40.6266,470.967)"
font-family="Ubuntu" font-size="11" font-weight="400" font-style="normal" 
>
</g>

<g fill="none" stroke="#000000" stroke-opacity="1" stroke-width="1" stroke-linecap="square" stroke-linejoin="bevel" transform="matrix(1.00313,0,0,1.00313,40.6266,470.967)"
font-family="Ubuntu" font-size="11" font-weight="400" font-style="normal" 
>
</g>

<g fill="none" stroke="#000000" stroke-opacity="1" stroke-width="1" stroke-linecap="square" stroke-linejoin="bevel" transform="matrix(1.00313,0,0,1.00313,40.6266,470.967)"
font-family="Ubuntu" font-size="11" font-weight="400" font-style="normal" 
>
</g>

<g fill="none" stroke="#000000" stroke-opacity="1" stroke-width="1" stroke-linecap="square" stroke-linejoin="bevel" transform="matrix(1.00313,0,0,1.00313,40.6266,470.967)"
font-family="Sans" font-size="9" font-weight="400" font-style="normal" 
>
<text fill="#000000" fill-opacity="1" stroke="none" xml:space="preserve" x="0" y="0" font-family="Sans" font-size="9" font-weight="400" font-style="normal" 
 > 0</text>
</g>

<g fill="none" stroke="#000000" stroke-opacity="1" stroke-width="1" stroke-linecap="square" stroke-linejoin="bevel" transform="matrix(1.00313,0,0,1.00313,40.6266,470.967)"
font-family="Ubuntu" font-size="11" font-weight="400" font-style="normal" 
>
</g>

<g fill="none" stroke="#000000" stroke-opacity="1" stroke-width="1" stroke-linecap="square" stroke-linejoin="bevel" transform="matrix(1.00313,0,0,1.00313,0,0)"
font-family="Ubuntu" font-size="11" font-weight="400" font-style="normal" 
>
</g>

<g fill="none" stroke="#a0a0a4" stroke-opacity="1" stroke-dasharray="0.5,1" stroke-dashoffset="0" stroke-width="0.5" stroke-linecap="round" stroke-linejoin="round" transform="matrix(1.00313,0,0,1.00313,0,0)"
font-family="Ubuntu" font-size="11" font-weight="400" font-style="normal" 
>
<polyline fill="none" vector-effect="none" points="160.5,450.5 160.5,15.5 " />
</g>

<g fill="none" stroke="#000000" stroke-opacity="1" stroke-width="1" stroke-linecap="round" stroke-linejoin="round" transform="matrix(1.00313,0,0,1.00313,0,0)"
font-family="Ubuntu" font-size="11" font-weight="400" font-style="normal" 
>
<polyline fill="none" vector-effect="none" points="160.5,450.5 160.5,444.5 " />
<polyline fill="none" vector-effect="none" points="160.5,15.5 160.5,21.5 " />
</g>

<g fill="none" stroke="#000000" stroke-opacity="1" stroke-width="1" stroke-linecap="square" stroke-linejoin="bevel" transform="matrix(1.00313,0,0,1.00313,0,0)"
font-family="Ubuntu" font-size="11" font-weight="400" font-style="normal" 
>
</g>

<g fill="none" stroke="#000000" stroke-opacity="1" stroke-width="1" stroke-linecap="square" stroke-linejoin="bevel" transform="matrix(1.00313,0,0,1.00313,146.958,470.967)"
font-family="Ubuntu" font-size="11" font-weight="400" font-style="normal" 
>
</g>

<g fill="none" stroke="#000000" stroke-opacity="1" stroke-width="1" stroke-linecap="square" stroke-linejoin="bevel" transform="matrix(1.00313,0,0,1.00313,146.958,470.967)"
font-family="Ubuntu" font-size="11" font-weight="400" font-style="normal" 
>
</g>

<g fill="none" stroke="#000000" stroke-opacity="1" stroke-width="1" stroke-linecap="square" stroke-linejoin="bevel" transform="matrix(1.00313,0,0,1.00313,146.958,470.967)"
font-family="Ubuntu" font-size="11" font-weight="400" font-style="normal" 
>
</g>

<g fill="none" stroke="#000000" stroke-opacity="1" stroke-width="1" stroke-linecap="square" stroke-linejoin="bevel" transform="matrix(1.00313,0,0,1.00313,146.958,470.967)"
font-family="Ubuntu" font-size="11" font-weight="400" font-style="normal" 
>
</g>

<g fill="none" stroke="#000000" stroke-opacity="1" stroke-width="1" stroke-linecap="square" stroke-linejoin="bevel" transform="matrix(1.00313,0,0,1.00313,146.958,470.967)"
font-family="Ubuntu" font-size="11" font-weight="400" font-style="normal" 
>
</g>

<g fill="none" stroke="#000000" stroke-opacity="1" stroke-width="1" stroke-linecap="square" stroke-linejoin="bevel" transform="matrix(1.00313,0,0,1.00313,146.958,470.967)"
font-family="Sans" font-size="9" font-weight="400" font-style="normal" 
>
<text fill="#000000" fill-opacity="1" stroke="none" xml:space="preserve" x="0" y="0" font-family="Sans" font-size="9" font-weight="400" font-style="normal" 
 > 200</text>
</g>

<g fill="none" stroke="#000000" stroke-opacity="1" stroke-width="1" stroke-linecap="square" stroke-linejoin="bevel" transform="matrix(1.00313,0,0,1.00313,146.958,470.967)"
font-family="Ubuntu" font-size="11" font-weight="400" font-style="normal" 
>
</g>

<g fill="none" stroke="#000000" stroke-opacity="1" stroke-width="1" stroke-linecap="square" stroke-linejoin="bevel" transform="matrix(1.00313,0,0,1.00313,0,0)"
font-family="Ubuntu" font-size="11" font-weight="400" font-style="normal" 
>
</g>

<g fill="none" stroke="#a0a0a4" stroke-opacity="1" stroke-dasharray="0.5,1" stroke-dashoffset="0" stroke-width="0.5" stroke-linecap="round" stroke-linejoin="round" transform="matrix(1.00313,0,0,1.00313,0,0)"
font-family="Ubuntu" font-size="11" font-weight="400" font-style="normal" 
>
<polyline fill="none" vector-effect="none" points="274.5,450.5 274.5,15.5 " />
</g>

<g fill="none" stroke="#000000" stroke-opacity="1" stroke-width="1" stroke-linecap="round" stroke-linejoin="round" transform="matrix(1.00313,0,0,1.00313,0,0)"
font-family="Ubuntu" font-size="11" font-weight="400" font-style="normal" 
>
<polyline fill="none" vector-effect="none" points="274.5,450.5 274.5,444.5 " />
<polyline fill="none" vector-effect="none" points="274.5,15.5 274.5,21.5 " />
</g>

<g fill="none" stroke="#000000" stroke-opacity="1" stroke-width="1" stroke-linecap="square" stroke-linejoin="bevel" transform="matrix(1.00313,0,0,1.00313,0,0)"
font-family="Ubuntu" font-size="11" font-weight="400" font-style="normal" 
>
</g>

<g fill="none" stroke="#000000" stroke-opacity="1" stroke-width="1" stroke-linecap="square" stroke-linejoin="bevel" transform="matrix(1.00313,0,0,1.00313,262.317,470.967)"
font-family="Ubuntu" font-size="11" font-weight="400" font-style="normal" 
>
</g>

<g fill="none" stroke="#000000" stroke-opacity="1" stroke-width="1" stroke-linecap="square" stroke-linejoin="bevel" transform="matrix(1.00313,0,0,1.00313,262.317,470.967)"
font-family="Ubuntu" font-size="11" font-weight="400" font-style="normal" 
>
</g>

<g fill="none" stroke="#000000" stroke-opacity="1" stroke-width="1" stroke-linecap="square" stroke-linejoin="bevel" transform="matrix(1.00313,0,0,1.00313,262.317,470.967)"
font-family="Ubuntu" font-size="11" font-weight="400" font-style="normal" 
>
</g>

<g fill="none" stroke="#000000" stroke-opacity="1" stroke-width="1" stroke-linecap="square" stroke-linejoin="bevel" transform="matrix(1.00313,0,0,1.00313,262.317,470.967)"
font-family="Ubuntu" font-size="11" font-weight="400" font-style="normal" 
>
</g>

<g fill="none" stroke="#000000" stroke-opacity="1" stroke-width="1" stroke-linecap="square" stroke-linejoin="bevel" transform="matrix(1.00313,0,0,1.00313,262.317,470.967)"
font-family="Ubuntu" font-size="11" font-weight="400" font-style="normal" 
>
</g>

<g fill="none" stroke="#000000" stroke-opacity="1" stroke-width="1" stroke-linecap="square" stroke-linejoin="bevel" transform="matrix(1.00313,0,0,1.00313,262.317,470.967)"
font-family="Sans" font-size="9" font-weight="400" font-style="normal" 
>
<text fill="#000000" fill-opacity="1" stroke="none" xml:space="preserve" x="0" y="0" font-family="Sans" font-size="9" font-weight="400" font-style="normal" 
 > 400</text>
</g>

<g fill="none" stroke="#000000" stroke-opacity="1" stroke-width="1" stroke-linecap="square" stroke-linejoin="bevel" transform="matrix(1.00313,0,0,1.00313,262.317,470.967)"
font-family="Ubuntu" font-size="11" font-weight="400" font-style="normal" 
>
</g>

<g fill="none" stroke="#000000" stroke-opacity="1" stroke-width="1" stroke-linecap="square" stroke-linejoin="bevel" transform="matrix(1.00313,0,0,1.00313,0,0)"
font-family="Ubuntu" font-size="11" font-weight="400" font-style="normal" 
>
</g>

<g fill="none" stroke="#a0a0a4" stroke-opacity="1" stroke-dasharray="0.5,1" stroke-dashoffset="0" stroke-width="0.5" stroke-linecap="round" stroke-linejoin="round" transform="matrix(1.00313,0,0,1.00313,0,0)"
font-family="Ubuntu" font-size="11" font-weight="400" font-style="normal" 
>
<polyline fill="none" vector-effect="none" points="389.5,450.5 389.5,15.5 " />
</g>

<g fill="none" stroke="#000000" stroke-opacity="1" stroke-width="1" stroke-linecap="round" stroke-linejoin="round" transform="matrix(1.00313,0,0,1.00313,0,0)"
font-family="Ubuntu" font-size="11" font-weight="400" font-style="normal" 
>
<polyline fill="none" vector-effect="none" points="389.5,450.5 389.5,444.5 " />
<polyline fill="none" vector-effect="none" points="389.5,15.5 389.5,21.5 " />
</g>

<g fill="none" stroke="#000000" stroke-opacity="1" stroke-width="1" stroke-linecap="square" stroke-linejoin="bevel" transform="matrix(1.00313,0,0,1.00313,0,0)"
font-family="Ubuntu" font-size="11" font-weight="400" font-style="normal" 
>
</g>

<g fill="none" stroke="#000000" stroke-opacity="1" stroke-width="1" stroke-linecap="square" stroke-linejoin="bevel" transform="matrix(1.00313,0,0,1.00313,377.677,470.967)"
font-family="Ubuntu" font-size="11" font-weight="400" font-style="normal" 
>
</g>

<g fill="none" stroke="#000000" stroke-opacity="1" stroke-width="1" stroke-linecap="square" stroke-linejoin="bevel" transform="matrix(1.00313,0,0,1.00313,377.677,470.967)"
font-family="Ubuntu" font-size="11" font-weight="400" font-style="normal" 
>
</g>

<g fill="none" stroke="#000000" stroke-opacity="1" stroke-width="1" stroke-linecap="square" stroke-linejoin="bevel" transform="matrix(1.00313,0,0,1.00313,377.677,470.967)"
font-family="Ubuntu" font-size="11" font-weight="400" font-style="normal" 
>
</g>

<g fill="none" stroke="#000000" stroke-opacity="1" stroke-width="1" stroke-linecap="square" stroke-linejoin="bevel" transform="matrix(1.00313,0,0,1.00313,377.677,470.967)"
font-family="Ubuntu" font-size="11" font-weight="400" font-style="normal" 
>
</g>

<g fill="none" stroke="#000000" stroke-opacity="1" stroke-width="1" stroke-linecap="square" stroke-linejoin="bevel" transform="matrix(1.00313,0,0,1.00313,377.677,470.967)"
font-family="Ubuntu" font-size="11" font-weight="400" font-style="normal" 
>
</g>

<g fill="none" stroke="#000000" stroke-opacity="1" stroke-width="1" stroke-linecap="square" stroke-linejoin="bevel" transform="matrix(1.00313,0,0,1.00313,377.677,470.967)"
font-family="Sans" font-size="9" font-weight="400" font-style="normal" 
>
<text fill="#000000" fill-opacity="1" stroke="none" xml:space="preserve" x="0" y="0" font-family="Sans" font-size="9" font-weight="400" font-style="normal" 
 > 600</text>
</g>

<g fill="none" stroke="#000000" stroke-opacity="1" stroke-width="1" stroke-linecap="square" stroke-linejoin="bevel" transform="matrix(1.00313,0,0,1.00313,377.677,470.967)"
font-family="Ubuntu" font-size="11" font-weight="400" font-style="normal" 
>
</g>

<g fill="none" stroke="#000000" stroke-opacity="1" stroke-width="1" stroke-linecap="square" stroke-linejoin="bevel" transform="matrix(1.00313,0,0,1.00313,0,0)"
font-family="Ubuntu" font-size="11" font-weight="400" font-style="normal" 
>
</g>

<g fill="none" stroke="#a0a0a4" stroke-opacity="1" stroke-dasharray="0.5,1" stroke-dashoffset="0" stroke-width="0.5" stroke-linecap="round" stroke-linejoin="round" transform="matrix(1.00313,0,0,1.00313,0,0)"
font-family="Ubuntu" font-size="11" font-weight="400" font-style="normal" 
>
<polyline fill="none" vector-effect="none" points="504.5,450.5 504.5,66.5 " />
<polyline fill="none" vector-effect="none" points="504.5,21.5 504.5,15.5 " />
</g>

<g fill="none" stroke="#000000" stroke-opacity="1" stroke-width="1" stroke-linecap="round" stroke-linejoin="round" transform="matrix(1.00313,0,0,1.00313,0,0)"
font-family="Ubuntu" font-size="11" font-weight="400" font-style="normal" 
>
<polyline fill="none" vector-effect="none" points="504.5,450.5 504.5,444.5 " />
<polyline fill="none" vector-effect="none" points="504.5,15.5 504.5,21.5 " />
</g>

<g fill="none" stroke="#000000" stroke-opacity="1" stroke-width="1" stroke-linecap="square" stroke-linejoin="bevel" transform="matrix(1.00313,0,0,1.00313,0,0)"
font-family="Ubuntu" font-size="11" font-weight="400" font-style="normal" 
>
</g>

<g fill="none" stroke="#000000" stroke-opacity="1" stroke-width="1" stroke-linecap="square" stroke-linejoin="bevel" transform="matrix(1.00313,0,0,1.00313,492.033,470.967)"
font-family="Ubuntu" font-size="11" font-weight="400" font-style="normal" 
>
</g>

<g fill="none" stroke="#000000" stroke-opacity="1" stroke-width="1" stroke-linecap="square" stroke-linejoin="bevel" transform="matrix(1.00313,0,0,1.00313,492.033,470.967)"
font-family="Ubuntu" font-size="11" font-weight="400" font-style="normal" 
>
</g>

<g fill="none" stroke="#000000" stroke-opacity="1" stroke-width="1" stroke-linecap="square" stroke-linejoin="bevel" transform="matrix(1.00313,0,0,1.00313,492.033,470.967)"
font-family="Ubuntu" font-size="11" font-weight="400" font-style="normal" 
>
</g>

<g fill="none" stroke="#000000" stroke-opacity="1" stroke-width="1" stroke-linecap="square" stroke-linejoin="bevel" transform="matrix(1.00313,0,0,1.00313,492.033,470.967)"
font-family="Ubuntu" font-size="11" font-weight="400" font-style="normal" 
>
</g>

<g fill="none" stroke="#000000" stroke-opacity="1" stroke-width="1" stroke-linecap="square" stroke-linejoin="bevel" transform="matrix(1.00313,0,0,1.00313,492.033,470.967)"
font-family="Ubuntu" font-size="11" font-weight="400" font-style="normal" 
>
</g>

<g fill="none" stroke="#000000" stroke-opacity="1" stroke-width="1" stroke-linecap="square" stroke-linejoin="bevel" transform="matrix(1.00313,0,0,1.00313,492.033,470.967)"
font-family="Sans" font-size="9" font-weight="400" font-style="normal" 
>
<text fill="#000000" fill-opacity="1" stroke="none" xml:space="preserve" x="0" y="0" font-family="Sans" font-size="9" font-weight="400" font-style="normal" 
 > 800</text>
</g>

<g fill="none" stroke="#000000" stroke-opacity="1" stroke-width="1" stroke-linecap="square" stroke-linejoin="bevel" transform="matrix(1.00313,0,0,1.00313,492.033,470.967)"
font-family="Ubuntu" font-size="11" font-weight="400" font-style="normal" 
>
</g>

<g fill="none" stroke="#000000" stroke-opacity="1" stroke-width="1" stroke-linecap="square" stroke-linejoin="bevel" transform="matrix(1.00313,0,0,1.00313,0,0)"
font-family="Ubuntu" font-size="11" font-weight="400" font-style="normal" 
>
</g>

<g fill="none" stroke="#a0a0a4" stroke-opacity="1" stroke-dasharray="0.5,1" stroke-dashoffset="0" stroke-width="0.5" stroke-linecap="round" stroke-linejoin="round" transform="matrix(1.00313,0,0,1.00313,0,0)"
font-family="Ubuntu" font-size="11" font-weight="400" font-style="normal" 
>
<polyline fill="none" vector-effect="none" points="618.5,450.5 618.5,15.5 " />
</g>

<g fill="none" stroke="#000000" stroke-opacity="1" stroke-width="1" stroke-linecap="round" stroke-linejoin="round" transform="matrix(1.00313,0,0,1.00313,0,0)"
font-family="Ubuntu" font-size="11" font-weight="400" font-style="normal" 
>
<polyline fill="none" vector-effect="none" points="618.5,450.5 618.5,444.5 " />
<polyline fill="none" vector-effect="none" points="618.5,15.5 618.5,21.5 " />
</g>

<g fill="none" stroke="#000000" stroke-opacity="1" stroke-width="1" stroke-linecap="square" stroke-linejoin="bevel" transform="matrix(1.00313,0,0,1.00313,0,0)"
font-family="Ubuntu" font-size="11" font-weight="400" font-style="normal" 
>
</g>

<g fill="none" stroke="#000000" stroke-opacity="1" stroke-width="1" stroke-linecap="square" stroke-linejoin="bevel" transform="matrix(1.00313,0,0,1.00313,603.38,470.967)"
font-family="Ubuntu" font-size="11" font-weight="400" font-style="normal" 
>
</g>

<g fill="none" stroke="#000000" stroke-opacity="1" stroke-width="1" stroke-linecap="square" stroke-linejoin="bevel" transform="matrix(1.00313,0,0,1.00313,603.38,470.967)"
font-family="Ubuntu" font-size="11" font-weight="400" font-style="normal" 
>
</g>

<g fill="none" stroke="#000000" stroke-opacity="1" stroke-width="1" stroke-linecap="square" stroke-linejoin="bevel" transform="matrix(1.00313,0,0,1.00313,603.38,470.967)"
font-family="Ubuntu" font-size="11" font-weight="400" font-style="normal" 
>
</g>

<g fill="none" stroke="#000000" stroke-opacity="1" stroke-width="1" stroke-linecap="square" stroke-linejoin="bevel" transform="matrix(1.00313,0,0,1.00313,603.38,470.967)"
font-family="Ubuntu" font-size="11" font-weight="400" font-style="normal" 
>
</g>

<g fill="none" stroke="#000000" stroke-opacity="1" stroke-width="1" stroke-linecap="square" stroke-linejoin="bevel" transform="matrix(1.00313,0,0,1.00313,603.38,470.967)"
font-family="Ubuntu" font-size="11" font-weight="400" font-style="normal" 
>
</g>

<g fill="none" stroke="#000000" stroke-opacity="1" stroke-width="1" stroke-linecap="square" stroke-linejoin="bevel" transform="matrix(1.00313,0,0,1.00313,603.38,470.967)"
font-family="Sans" font-size="9" font-weight="400" font-style="normal" 
>
<text fill="#000000" fill-opacity="1" stroke="none" xml:space="preserve" x="0" y="0" font-family="Sans" font-size="9" font-weight="400" font-style="normal" 
 > 1000</text>
</g>

<g fill="none" stroke="#000000" stroke-opacity="1" stroke-width="1" stroke-linecap="square" stroke-linejoin="bevel" transform="matrix(1.00313,0,0,1.00313,603.38,470.967)"
font-family="Ubuntu" font-size="11" font-weight="400" font-style="normal" 
>
</g>

<g fill="none" stroke="#000000" stroke-opacity="1" stroke-width="1" stroke-linecap="square" stroke-linejoin="bevel" transform="matrix(1.00313,0,0,1.00313,0,0)"
font-family="Ubuntu" font-size="11" font-weight="400" font-style="normal" 
>
</g>

<g fill="none" stroke="#000000" stroke-opacity="1" stroke-width="1" stroke-linecap="round" stroke-linejoin="round" transform="matrix(1.00313,0,0,1.00313,0,0)"
font-family="Ubuntu" font-size="11" font-weight="400" font-style="normal" 
>
<polyline fill="none" vector-effect="none" points="45.5,15.5 45.5,450.5 618.5,450.5 618.5,15.5 45.5,15.5 " />
</g>

<g fill="none" stroke="#000000" stroke-opacity="1" stroke-width="1" stroke-linecap="square" stroke-linejoin="bevel" transform="matrix(1.00313,0,0,1.00313,0,0)"
font-family="Ubuntu" font-size="11" font-weight="400" font-style="normal" 
>
</g>

<g fill="none" stroke="#000000" stroke-opacity="1" stroke-width="1" stroke-linecap="square" stroke-linejoin="bevel" transform="matrix(1.00313,0,0,1.00313,487.519,33.6047)"
font-family="Ubuntu" font-size="11" font-weight="400" font-style="normal" 
>
</g>

<g fill="none" stroke="#000000" stroke-opacity="1" stroke-width="1" stroke-linecap="square" stroke-linejoin="bevel" transform="matrix(1.00313,0,0,1.00313,487.519,33.6047)"
font-family="Ubuntu" font-size="11" font-weight="400" font-style="normal" 
>
</g>

<g fill="none" stroke="#000000" stroke-opacity="1" stroke-width="1" stroke-linecap="square" stroke-linejoin="bevel" transform="matrix(1.00313,0,0,1.00313,487.519,33.6047)"
font-family="Ubuntu" font-size="11" font-weight="400" font-style="normal" 
>
</g>

<g fill="none" stroke="#000000" stroke-opacity="1" stroke-width="1" stroke-linecap="square" stroke-linejoin="bevel" transform="matrix(1.00313,0,0,1.00313,487.519,33.6047)"
font-family="Ubuntu" font-size="11" font-weight="400" font-style="normal" 
>
</g>

<g fill="none" stroke="#000000" stroke-opacity="1" stroke-width="1" stroke-linecap="square" stroke-linejoin="bevel" transform="matrix(1.00313,0,0,1.00313,487.519,33.6047)"
font-family="Ubuntu" font-size="11" font-weight="400" font-style="normal" 
>
</g>

<g fill="none" stroke="#000000" stroke-opacity="1" stroke-width="1" stroke-linecap="square" stroke-linejoin="bevel" transform="matrix(1.00313,0,0,1.00313,487.519,33.6047)"
font-family="Sans" font-size="9" font-weight="400" font-style="normal" 
>
<text fill="#000000" fill-opacity="1" stroke="none" xml:space="preserve" x="0" y="0" font-family="Sans" font-size="9" font-weight="400" font-style="normal" 
 >2m schaduw</text>
</g>

<g fill="none" stroke="#000000" stroke-opacity="1" stroke-width="1" stroke-linecap="square" stroke-linejoin="bevel" transform="matrix(1.00313,0,0,1.00313,487.519,33.6047)"
font-family="Ubuntu" font-size="11" font-weight="400" font-style="normal" 
>
</g>

<g fill="none" stroke="#000000" stroke-opacity="1" stroke-width="1" stroke-linecap="square" stroke-linejoin="bevel" transform="matrix(1.00313,0,0,1.00313,0,0)"
font-family="Ubuntu" font-size="11" font-weight="400" font-style="normal" 
>
</g>

<g fill="none" stroke="#9400d3" stroke-opacity="1" stroke-width="1" stroke-linecap="round" stroke-linejoin="round" transform="matrix(1.00313,0,0,1.00313,0,0)"
font-family="Ubuntu" font-size="11" font-weight="400" font-style="normal" 
>
<path vector-effect="none" fill-rule="evenodd" d="M570.5,28.5 L604.5,28.5"/>
</g>

<g fill="none" stroke="#000000" stroke-opacity="1" stroke-width="1" stroke-linecap="square" stroke-linejoin="bevel" transform="matrix(1.00313,0,0,1.00313,0,0)"
font-family="Ubuntu" font-size="11" font-weight="400" font-style="normal" 
>
</g>

<g fill="none" stroke="#000000" stroke-opacity="1" stroke-width="1" stroke-linecap="square" stroke-linejoin="bevel" transform="matrix(1.00313,0,0,1.00313,0,0)"
font-family="Ubuntu" font-size="11" font-weight="400" font-style="normal" 
>
</g>

<g fill="none" stroke="#000000" stroke-opacity="1" stroke-width="1" stroke-linecap="square" stroke-linejoin="bevel" transform="matrix(1.00313,0,0,1.00313,0,0)"
font-family="Ubuntu" font-size="11" font-weight="400" font-style="normal" 
>
</g>

<g fill="none" stroke="#000000" stroke-opacity="1" stroke-width="1" stroke-linecap="square" stroke-linejoin="bevel" transform="matrix(1.00313,0,0,1.00313,0,0)"
font-family="Ubuntu" font-size="11" font-weight="400" font-style="normal" 
>
</g>

<g fill="none" stroke="#9400d3" stroke-opacity="1" stroke-width="1" stroke-linecap="round" stroke-linejoin="round" transform="matrix(1.00313,0,0,1.00313,0,0)"
font-family="Ubuntu" font-size="11" font-weight="400" font-style="normal" 
>
<polyline fill="none" vector-effect="none" points="45.5,132.3 45.5,132.3 46.1,125.2 46.6,123.3 47.2,114.3 47.8,135.8 48.4,123.3 48.9,112.7 49.5,123.6 50.1,124.9 50.7,112.7 51.2,135.5 51.8,103.7 52.4,134.2 53,121.4 53.5,124.9 54.1,123.3 54.7,134.2 55.2,123.3 55.8,125.2 56.4,135.5 57,135.5 57.5,123.3 58.1,123.3 58.7,135.8 59.3,124.9 59.8,136.1 60.4,132.3 61,112.7 61.6,123.3 62.1,124.9 62.7,123.3 63.3,112.4 63.8,123.6 64.4,112.4 65,123.6 65.6,135.5 66.1,101.8 66.7,124.9 67.3,135.8 67.9,121.4 68.4,123.3 69,134.2 69.6,123.3 70.2,123.3 70.7,112.7 71.3,112.4 71.9,112.4 72.4,133.9 73,82.2 73.6,123.3 74.2,101.8 74.7,119.7 75.3,121.7 75.9,112.7 76.5,123.3 77,123.3 77.6,123.6 78.2,125.2 78.8,123.3 79.3,133.9 79.9,114.3 80.5,112.7 81.1,123.3 81.6,123.3 82.2,134.2 82.8,121.4 83.3,133.9 83.9,123.3 84.5,102.1 85.1,102.1 85.6,112.7 86.2,112.7 86.8,124.9 87.4,133.9 87.9,123.3 88.5,135.8 89.1,112.7 89.7,123.6 90.2,142.9 90.8,123.6 91.4,112.7 91.9,112.7 92.5,123.3 93.7,123.3 94.2,123.3 94.8,123.3 95.4,112.7 96,134.2 96.5,112.7 97.1,132.3 97.7,133.9 98.3,112.7 98.8,134.2 99.4,135.8 100,112.7 100.5,134.2 101.1,133.9 101.7,112.7 102.3,134.2 102.8,123.3 103.4,134.2 104,134.2 104.6,133.9 105.1,112.7 105.7,112.7 106.3,101.8 106.9,123.3 107.4,123.3 108,101.8 108.6,133.9 109.1,112.7 109.7,112.7 110.3,123.3 110.9,123.3 111.4,109.4 112,133.6 112.6,101.8 113.2,112.7 113.7,135.8 114.3,112.7 114.9,134.2 115.5,123.3 116,124.9 116.6,123.3 117.2,101.8 117.7,134.2 118.3,102.1 118.9,114.6 119.5,132.3 120,123.3 120.6,112.7 121.2,123.3 121.8,133.9 122.3,112.4 122.9,123.3 123.5,134.2 124.1,112.4 124.6,123.3 125.2,112.7 125.8,123.3 126.3,112.7 126.9,132.3 127.5,123.3 128.1,112.7 128.6,133.9 129.2,123.3 129.8,102.1 130.4,112.4 130.9,112.7 131.5,123.3 132.1,123.3 132.7,102.1 133.2,123.3 133.8,144.8 134.4,144.8 135,123.3 135.5,133.9 136.1,133.9 136.7,123.3 137.2,144.8 137.8,123.3 138.4,112.4 139,112.7 139.5,123.3 140.1,125.2 140.7,125.2 141.3,134.2 141.8,110.8 142.4,112.7 143,134.2 143.6,123.3 144.1,112.7 144.7,124.9 145.3,112.4 145.8,112.7 146.4,123.6 147,123.3 147.6,112.7 148.1,134.2 148.7,134.2 149.3,121.7 149.9,103.7 150.4,112.4 151,123.3 151.6,102.1 152.2,101.8 152.7,112.7 153.3,112.7 153.9,133.9 154.4,123.3 155,133.9 155.6,112.7 156.2,123.6 156.7,121.7 157.3,134.2 157.9,133.9 158.5,123.3 159,112.7 159.6,112.7 160.2,112.7 160.8,123.3 161.3,112.7 161.9,112.7 162.5,134.2 163,112.7 163.6,135.8 164.2,121.7 164.8,123.3 165.3,123.3 165.9,123.3 166.5,123.3 167.1,133.9 167.6,135.8 168.2,134.2 168.8,112.4 169.4,112.7 169.9,112.7 170.5,123.3 171.1,144.8 171.6,121.4 172.2,112.7 172.8,123.3 173.4,123.3 173.9,123.3 174.5,123.3 175.1,124.9 175.7,112.7 176.2,135.5 176.8,133.9 177.4,134.2 178,134.2 178.5,135.8 179.1,121.4 179.7,103.7 180.2,91.5 180.8,124.9 181.4,123.3 182,112.7 182.5,101.8 183.1,112.7 183.7,123.3 184.3,124.9 184.8,123.3 185.4,112.7 186,135.8 186.6,121.7 187.1,112.7 187.7,112.4 188.3,112.7 188.9,101.8 189.4,101.8 190,91.2 190.6,101.8 191.1,123.3 191.7,114.3 192.3,91.2 192.9,112.7 193.4,120 194,121.4 194.6,102.1 195.2,91.5 195.7,112.7 196.3,124.9 196.9,103.4 197.5,114.3 198,123.3 198.6,114.3 199.2,101.8 199.7,102.1 200.3,102.1 200.9,120 201.5,110.8 202,112.7 202.6,101.8 203.2,114.3 203.8,124.9 204.3,123.3 204.9,112.7 205.5,112.4 206.1,101.8 206.6,123.3 207.2,124.9 207.8,124.9 208.3,123.6 208.9,112.4 209.5,112.7 210.1,123.3 210.6,112.7 211.2,102.1 211.8,101.8 212.4,112.7 212.9,103.4 213.5,112.7 214.1,102.1 214.7,101.8 215.2,101.8 215.8,112.7 216.4,110.8 216.9,103.4 217.5,101.8 218.1,112.7 218.7,123.3 219.2,80.6 219.8,112.7 220.4,101.8 221,112.7 221.5,102.1 222.1,112.7 222.7,112.4 223.3,113 223.8,132.3 224.4,123.6 225,124.9 225.5,112.7 226.1,123.3 226.7,112.7 227.3,91.2 227.8,112.4 228.4,112.7 229,102.1 229.6,124.9 230.1,102.1 230.7,123.6 231.3,123.3 231.9,112.7 232.4,112.7 233,102.1 233.6,101.8 234.1,103.7 234.7,114.3 235.3,123.3 235.9,114.3 236.4,112.7 237,112.4 237.6,103.7 238.2,112.7 238.7,121.4 239.3,103.7 239.9,102.1 240.5,114.3 241,112.7 241.6,101.8 242.2,101.8 242.7,103.4 243.3,101.8 243.9,123.3 244.5,101.8 245,112.7 245.6,134.2 246.2,110.8 246.8,123.6 247.3,123.3 247.9,112.7 248.5,102.1 249.1,112.7 249.6,123.6 250.2,114.3 250.8,103.7 251.4,102.1 251.9,101.8 252.5,112.7 253.1,109.1 253.6,100.2 254.2,112.7 254.8,123.3 255.4,112.7 255.9,102.1 256.5,101.8 257.1,123.3 257.7,91.2 258.2,123.3 258.8,123.3 259.4,112.7 260,112.4 260.5,125.2 261.1,100.2 261.7,102.1 262.2,123.3 262.8,101.8 263.4,101.8 264,123.3 264.5,112.7 265.1,114.3 265.7,101.8 266.3,112.7 266.8,123.3 267.4,91.2 268,134.2 268.6,100.2 269.1,101.8 269.7,101.8 270.3,112.7 270.8,91.2 271.4,112.7 272,102.1 272.6,112.4 273.1,112.7 273.7,102.1 274.3,101.8 274.9,102.1 275.4,134.4 276,132.3 276.6,112.7 277.2,123.3 277.7,134.2 278.3,123.3 278.9,112.7 279.4,134.2 280,124.9 280.6,112.7 281.2,123.6 281.7,101.8 282.3,134.4 282.9,143.1 283.5,123.3 284,123.3 284.6,123.3 285.2,123.3 285.8,102.1 286.3,112.4 286.9,112.7 287.5,112.7 288,112.7 288.6,112.7 289.2,123.3 289.8,112.7 290.3,142.9 290.9,123.3 291.5,112.7 292.1,134.2 292.6,123.3 293.2,112.7 293.8,133.9 294.4,135.5 294.9,123.3 295.5,112.4 296.1,112.7 296.6,112.7 297.2,98.5 297.8,121.4 298.4,123.3 298.9,112.7 299.5,123.3 300.1,123.3 300.7,112.7 301.2,112.7 301.8,123.3 302.4,112.7 303,101.8 303.5,123.3 304.1,123.3 304.7,134.2 305.3,132 305.8,112.7 306.4,112.4 307,123.3 307.5,112.4 308.1,112.7 308.7,123.3 309.3,133.9 309.8,123.3 310.4,135.8 311,123.3 311.6,114.3 312.1,134.2 312.7,133.9 313.3,124.9 313.9,112.7 314.4,123.3 315,123.3 315.6,112.7 316.1,134.2 316.7,112.4 317.3,114.3 317.9,114.3 318.4,112.7 319,123.3 319.6,146.7 320.2,142.9 320.7,134.2 321.3,123.6 321.9,112.7 322.5,112.7 323,134.2 323.6,123.3 324.2,114.3 324.7,123.6 325.3,123.3 325.9,123.6 326.5,123.3 327,144.8 327.6,132.3 328.2,123.3 328.8,146.4 329.3,123.3 329.9,124.9 330.5,123.3 331.1,123.3 331.6,112.7 332.2,123.3 332.8,112.4 333.3,123.3 333.9,123.6 334.5,123.6 335.1,121.7 335.6,124.9 336.2,112.7 336.8,112.4 337.4,112.7 337.9,102.1 338.5,123.3 339.1,134.2 339.7,112.7 340.2,112.7 340.8,123.6 341.4,123.3 341.9,112.7 342.5,132.3 343.1,123.3 343.7,134.2 344.2,123.3 344.8,123.3 345.4,101.8 346,112.7 346.5,112.7 347.1,133.9 347.7,112.7 348.3,124.9 348.8,101.8 349.4,134.2 350,132.3 350.5,123.3 351.1,123.3 351.7,125.2 352.3,112.7 352.8,133.9 353.4,101.8 354,112.7 354.6,112.4 355.1,91.2 355.7,133.9 356.3,133.9 356.9,120 357.4,121.4 358,102.1 358.6,124.9 359.1,133.9 359.7,112.7 360.3,112.7 360.9,133.9 361.4,123.3 362,123.3 362.6,123.3 363.2,112.7 363.7,134.2 364.3,145 364.9,132.3 365.5,135.5 366,133.9 366.6,112.4 367.2,102.1 367.8,101.8 368.3,112.7 368.9,123.3 369.5,123.3 370,123.3 370.6,101.8 371.2,123.3 371.8,145 372.3,121.4 372.9,112.7 373.5,123.3 374.1,112.7 374.6,123.3 375.2,112.7 375.8,112.7 376.4,123.3 376.9,124.9 377.5,123.3 378.1,101.8 378.6,123.3 379.2,134.2 379.8,132 380.4,123.3 380.9,123.6 381.5,123.3 382.1,112.4 382.7,123.3 383.2,123.3 383.8,101.8 384.4,112.7 385,112.7 385.5,133.9 386.1,101.8 386.7,112.7 387.2,132 387.8,101.8 388.4,123.3 389,112.7 389.5,112.7 390.1,124.9 390.7,133.9 391.3,133.9 391.8,123.3 392.4,112.7 393,123.6 393.6,123.3 394.1,130.9 394.7,110.8 395.3,112.7 395.8,124.9 396.4,112.7 397,123.3 397.6,123.3 398.1,123.3 398.7,101.8 399.3,123.6 399.9,135.5 400.4,123.3 401,112.7 401.6,125.2 402.2,110.8 402.7,112.7 403.3,123.3 403.9,133.9 404.4,112.7 405,112.7 405.6,123.6 406.2,124.9 406.7,112.7 407.3,133.9 407.9,123.3 408.5,124.9 409,144.8 409.6,110.8 410.2,123.3 410.8,123.3 411.3,123.3 411.9,112.7 412.5,112.7 413,134.2 413.6,133.9 414.2,101.8 414.8,102.1 415.3,112.7 415.9,112.7 416.5,134.2 417.1,144.5 417.6,112.7 418.2,112.7 418.8,157 419.4,101.8 419.9,112.7 420.5,112.7 421.1,112.7 421.7,123.3 422.2,135.8 422.8,123.3 423.4,134.2 423.9,145 424.5,132.3 425.1,134.2 425.7,123.6 426.2,123.3 426.8,123.6 427.4,101.8 428,112.7 428.5,102.1 429.1,123.3 429.7,123.3 430.3,135.8 430.8,123.3 431.4,123.6 432,133.9 432.5,112.7 433.1,112.7 433.7,123.3 434.3,123.3 434.8,123.3 435.4,123.3 436,112.7 436.6,112.7 437.1,125.2 437.7,112.7 438.3,112.7 438.9,123.6 439.4,144.5 440,123.3 440.6,134.2 441.1,101.8 441.7,134.2 442.3,123.6 442.9,133.9 443.4,112.7 444,134.2 444.6,112.7 445.2,101.8 445.7,112.7 446.3,123.6 446.9,100.2 447.5,102.1 448,123.3 448.6,91.2 449.2,124.9 449.7,112.7 450.3,112.7 450.9,133.9 451.5,133.9 452,124.9 452.6,112.7 453.2,133.9 453.8,145 454.3,142.9 454.9,123.3 455.5,112.7 456.1,133.9 456.6,123.3 457.2,112.7 457.8,101.8 458.3,112.7 458.9,123.6 459.5,135.8 460.1,134.2 460.6,112.4 461.2,123.6 461.8,133.9 462.4,112.7 462.9,112.7 463.5,112.7 464.1,123.6 464.7,123.3 465.2,123.3 465.8,123.3 466.4,112.7 466.9,112.4 467.5,133.9 468.1,114.3 468.7,123.6 469.2,142.9 469.8,123.3 470.4,134.2 471,101.8 471.5,134.2 472.1,123.6 472.7,123.3 473.3,134.2 473.8,123.6 474.4,102.1 475,112.7 475.6,112.7 476.1,134.2 476.7,121.7 477.3,135.5 477.8,124.9 478.4,134.2 479,114 479.6,123.3 480.1,112.7 480.7,91.2 481.3,112.7 481.9,123.6 482.4,101.8 483,123.3 483.6,134.2 484.2,132.3 484.7,123.3 485.3,123.3 485.9,112.7 486.4,102.1 487,112.7 487.6,102.1 488.2,112.7 488.7,112.7 489.3,123.6 489.9,101.8 490.5,123.6 491,123.6 491.6,132.3 492.2,123.6 492.8,112.4 493.3,133.9 493.9,112.7 494.5,123.3 495,112.7 495.6,112.7 496.2,123.6 496.8,102.1 497.3,133.9 497.9,123.3 498.5,134.2 499.1,110.8 499.6,123.3 500.2,112.7 500.8,125.2 501.4,134.2 501.9,133.9 502.5,123.3 503.1,134.2 503.6,112.7 504.2,112.7 504.8,123.3 505.4,123.3 505.9,146.4 506.5,121.4 507.1,123.3 507.7,112.7 508.2,112.4 508.8,123.3 509.4,112.7 510,123.3 510.5,112.7 511.1,112.7 511.7,112.7 512.2,102.1 512.8,133.9 513.4,123.6 514,121.4 514.5,134.2 515.1,112.7 515.7,134.2 516.3,123.3 516.8,123.3 517.4,135.8 518,112.7 518.6,112.7 519.1,123.6 519.7,123.3 520.3,112.7 520.8,119.7 521.4,132.3 522,112.7 522.6,102.1 523.1,134.2 523.7,112.7 524.3,112.4 524.9,112.7 525.4,102.1 526,102.1 526.6,133.9 527.2,112.7 527.7,101.8 528.3,112.7 528.9,133.6 529.4,134.2 530,112.7 530.6,133.9 531.2,112.7 531.7,123.3 532.3,112.4 532.9,112.7 533.5,123.3 534,133.9 534.6,112.7 535.2,112.7 535.8,112.7 536.3,133.9 536.9,112.7 537.5,123.3 538.1,112.7 538.6,134.2 539.2,101.8 539.8,112.7 540.3,102.1 540.9,91.2 541.5,123.6 542.1,101.8 542.6,123.3 543.2,144.8 543.8,110.8 544.4,112.7 544.9,123.3 545.5,102.1 546.1,112.4 546.7,123.3 547.2,112.7 547.8,123.3 548.4,135.8 548.9,112.7 549.5,125.2 550.1,91.2 550.7,134.2 551.2,123 551.8,123.3 552.4,133.9 553,112.7 553.5,112.4 554.1,114.3 554.7,123.3 555.3,135.8 555.8,135.5 556.4,123.3 557,101.8 557.5,101.8 558.1,102.1 558.7,132.3 559.3,112.4 559.8,123.3 560.4,114.3 561,124.9 561.6,123.3 562.1,123.3 562.7,133.9 563.3,112.4 563.9,123.3 564.4,112.7 565,123.3 565.6,130.9 566.1,110.8 566.7,133.9 567.3,124.9 567.9,112.7 568.4,134.2 569,112.7 569.6,112.7 570.2,112.4 570.7,112.7 571.3,102.1 571.9,123.3 572.5,123.3 573,144.8 573.6,121.4 574.2,112.7 574.7,134.2 575.3,123.3 575.9,123.3 576.5,133.9 577,102.1 577.6,112.7 578.2,135.8 578.8,135.5 579.3,101.8 579.9,112.7 580.5,113 581.1,132.3 581.6,123.6 582.2,133.9 582.8,112.7 583.3,135.8 583.9,123.6 584.5,101.8 585.1,134.2 585.6,123.3 586.2,112.7 586.8,123.3 587.4,112.7 587.9,123.3 588.5,100.2 589.1,123.3 589.7,91.2 590.2,123.3 590.8,112.7 591.4,101.8 592,123.3 592.5,102.1 593.1,123.3 593.7,123.3 594.2,123.6 594.8,112.7 595.4,134.2 596,121.4 596.5,134.2 597.1,112.4 597.7,123.3 598.3,123.3 598.8,112.7 599.4,124.9 600,123.6 600.6,123.3 601.1,123.3 601.7,112.7 602.3,112.7 602.8,123.6 603.4,121.4 604,155.4 604.6,123.3 605.1,135.8 605.7,123.3 606.3,101.8 606.9,135.8 607.4,112.7 608,123.3 608.6,112.7 609.2,112.7 609.7,91.2 610.3,134.2 610.9,132 611.4,112.7 612,123.3 612.6,112.7 613.2,101.8 613.7,112.4 614.3,112.7 614.9,123.3 615.5,112.7 616,124.9 616.6,112.7 617.2,123.3 617.8,144.8 618.3,133.9 " />
</g>

<g fill="none" stroke="#000000" stroke-opacity="1" stroke-width="1" stroke-linecap="square" stroke-linejoin="bevel" transform="matrix(1.00313,0,0,1.00313,0,0)"
font-family="Ubuntu" font-size="11" font-weight="400" font-style="normal" 
>
</g>

<g fill="none" stroke="#000000" stroke-opacity="1" stroke-width="1" stroke-linecap="square" stroke-linejoin="bevel" transform="matrix(1.00313,0,0,1.00313,521.625,48.6516)"
font-family="Ubuntu" font-size="11" font-weight="400" font-style="normal" 
>
</g>

<g fill="none" stroke="#000000" stroke-opacity="1" stroke-width="1" stroke-linecap="square" stroke-linejoin="bevel" transform="matrix(1.00313,0,0,1.00313,521.625,48.6516)"
font-family="Ubuntu" font-size="11" font-weight="400" font-style="normal" 
>
</g>

<g fill="none" stroke="#000000" stroke-opacity="1" stroke-width="1" stroke-linecap="square" stroke-linejoin="bevel" transform="matrix(1.00313,0,0,1.00313,521.625,48.6516)"
font-family="Ubuntu" font-size="11" font-weight="400" font-style="normal" 
>
</g>

<g fill="none" stroke="#000000" stroke-opacity="1" stroke-width="1" stroke-linecap="square" stroke-linejoin="bevel" transform="matrix(1.00313,0,0,1.00313,521.625,48.6516)"
font-family="Ubuntu" font-size="11" font-weight="400" font-style="normal" 
>
</g>

<g fill="none" stroke="#000000" stroke-opacity="1" stroke-width="1" stroke-linecap="square" stroke-linejoin="bevel" transform="matrix(1.00313,0,0,1.00313,521.625,48.6516)"
font-family="Ubuntu" font-size="11" font-weight="400" font-style="normal" 
>
</g>

<g fill="none" stroke="#000000" stroke-opacity="1" stroke-width="1" stroke-linecap="square" stroke-linejoin="bevel" transform="matrix(1.00313,0,0,1.00313,521.625,48.6516)"
font-family="Sans" font-size="9" font-weight="400" font-style="normal" 
>
<text fill="#000000" fill-opacity="1" stroke="none" xml:space="preserve" x="0" y="0" font-family="Sans" font-size="9" font-weight="400" font-style="normal" 
 >2m zon</text>
</g>

<g fill="none" stroke="#000000" stroke-opacity="1" stroke-width="1" stroke-linecap="square" stroke-linejoin="bevel" transform="matrix(1.00313,0,0,1.00313,521.625,48.6516)"
font-family="Ubuntu" font-size="11" font-weight="400" font-style="normal" 
>
</g>

<g fill="none" stroke="#000000" stroke-opacity="1" stroke-width="1" stroke-linecap="square" stroke-linejoin="bevel" transform="matrix(1.00313,0,0,1.00313,0,0)"
font-family="Ubuntu" font-size="11" font-weight="400" font-style="normal" 
>
</g>

<g fill="none" stroke="#009e73" stroke-opacity="1" stroke-width="1" stroke-linecap="round" stroke-linejoin="round" transform="matrix(1.00313,0,0,1.00313,0,0)"
font-family="Ubuntu" font-size="11" font-weight="400" font-style="normal" 
>
<path vector-effect="none" fill-rule="evenodd" d="M570.5,43.5 L604.5,43.5"/>
</g>

<g fill="none" stroke="#000000" stroke-opacity="1" stroke-width="1" stroke-linecap="square" stroke-linejoin="bevel" transform="matrix(1.00313,0,0,1.00313,0,0)"
font-family="Ubuntu" font-size="11" font-weight="400" font-style="normal" 
>
</g>

<g fill="none" stroke="#000000" stroke-opacity="1" stroke-width="1" stroke-linecap="square" stroke-linejoin="bevel" transform="matrix(1.00313,0,0,1.00313,0,0)"
font-family="Ubuntu" font-size="11" font-weight="400" font-style="normal" 
>
</g>

<g fill="none" stroke="#000000" stroke-opacity="1" stroke-width="1" stroke-linecap="square" stroke-linejoin="bevel" transform="matrix(1.00313,0,0,1.00313,0,0)"
font-family="Ubuntu" font-size="11" font-weight="400" font-style="normal" 
>
</g>

<g fill="none" stroke="#000000" stroke-opacity="1" stroke-width="1" stroke-linecap="square" stroke-linejoin="bevel" transform="matrix(1.00313,0,0,1.00313,0,0)"
font-family="Ubuntu" font-size="11" font-weight="400" font-style="normal" 
>
</g>

<g fill="none" stroke="#009e73" stroke-opacity="1" stroke-width="1" stroke-linecap="round" stroke-linejoin="round" transform="matrix(1.00313,0,0,1.00313,0,0)"
font-family="Ubuntu" font-size="11" font-weight="400" font-style="normal" 
>
<polyline fill="none" vector-effect="none" points="45.5,146.4 45.5,146.4 46.1,155.6 46.6,176.8 47.2,146.4 47.8,166.2 48.4,157 48.9,167.9 49.5,157 50.1,157.3 50.7,146.4 51.2,167.9 51.8,146.4 52.4,146.4 53,155.4 53.5,168.1 54.1,176.6 54.7,144.8 55.2,146.4 55.8,166 56.4,157 57,146.4 57.5,157 58.1,157.3 58.7,155.4 59.3,187.4 59.8,167.9 60.4,178.5 61,167.9 61.6,166 62.1,167.9 62.7,157 63.3,167.9 63.8,178.5 64.4,157 65,157 65.6,155.4 66.1,155.4 66.7,155.4 67.3,178.5 67.9,157 68.4,189.3 69,176.6 69.6,167.6 70.2,157 70.7,189.1 71.3,210.5 71.9,167.9 72.4,178.5 73,167.9 73.6,155.4 74.2,157.3 74.7,146.4 75.3,178.5 75.9,200.2 76.5,176.8 77,167.9 77.6,166 78.2,178.5 78.8,166.2 79.3,166.2 79.9,155.4 80.5,155.4 81.1,167.9 81.6,167.9 82.2,157 82.8,144.8 83.3,166.2 83.9,166 84.5,157 85.1,157 85.6,178.5 86.2,189.3 86.8,189.3 87.4,155.4 87.9,157 88.5,155.4 89.1,178.5 89.7,155.6 90.2,157.3 90.8,185.8 91.4,176.6 91.9,166 92.5,178.5 93.1,166.2 93.7,167.9 94.2,167.9 94.8,167.9 95.4,178.5 96,167.9 96.5,157 97.1,178.5 97.7,168.1 98.3,166 98.8,157.3 99.4,146.7 100,187.4 100.5,167.9 101.1,157 101.7,166 102.3,157 102.8,189.3 103.4,155.4 104,178.5 104.6,167.9 105.1,199.9 105.7,176.6 106.3,178.5 106.9,176.8 107.4,178.7 108,178.5 108.6,178.5 109.1,178.5 109.7,157 110.3,167.9 110.9,167.9 111.4,167.9 112,166.2 112.6,167.9 113.2,198 113.7,178.5 114.3,157 114.9,167.9 115.5,167.9 116,189.3 116.6,189.3 117.2,167.6 117.7,166 118.3,166 118.9,187.7 119.5,210.5 120,167.9 120.6,198 121.2,157.3 121.8,155.6 122.3,189.1 122.9,157.3 123.5,167.6 124.1,178.5 124.6,178.5 125.2,178.5 125.8,189.3 126.3,178.7 126.9,155.4 127.5,200.2 128.1,187.4 128.6,178.7 129.2,208.9 129.8,178.5 130.4,178.5 130.9,157 131.5,155.6 132.1,178.5 132.7,167.9 133.2,178.5 133.8,210.5 134.4,157.3 135,166.2 135.5,164.1 136.1,178.7 136.7,187.7 137.2,167.6 137.8,178.5 138.4,144.8 139,167.9 139.5,166.2 140.1,178.5 140.7,155.4 141.3,189.3 141.8,157 142.4,164.3 143,187.4 143.6,157 144.1,178.5 144.7,144.8 145.3,189.3 145.8,157.3 146.4,155.4 147,167.9 147.6,166.2 148.1,167.9 148.7,187.7 149.3,176.8 149.9,199.9 150.4,185.5 151,167.9 151.6,178.5 152.2,178.5 152.7,166.2 153.3,178.5 153.9,189.1 154.4,167.9 155,167.6 155.6,155.4 156.2,189.1 156.7,178.5 157.3,200.2 157.9,166 158.5,176.8 159,178.5 159.6,189.1 160.2,178.5 160.8,157 161.3,176.8 161.9,187.4 162.5,157.3 163,178.5 163.6,210.8 164.2,178.5 164.8,221.4 165.3,185.5 165.9,144.8 166.5,167.9 167.1,157 167.6,167.9 168.2,178.5 168.8,178.5 169.4,144.8 169.9,176.8 170.5,178.5 171.1,166.2 171.6,146.4 172.2,167.9 172.8,164.3 173.4,178.5 173.9,157 174.5,167.9 175.1,176.8 175.7,157.3 176.2,157 176.8,167.9 177.4,167.6 178,167.9 178.5,167.9 179.1,167.9 179.7,168.1 180.2,166 180.8,167.9 181.4,178.7 182,167.9 182.5,157.3 183.1,176.8 183.7,157 184.3,157 184.8,157 185.4,187.4 186,178.5 186.6,157.3 187.1,177.1 187.7,166 188.3,157.3 188.9,166 189.4,155.4 190,178.5 190.6,155.4 191.1,157.3 191.7,157.3 192.3,176.8 192.9,144.8 193.4,157.3 194,178.7 194.6,162.7 195.2,196.1 195.7,155.4 196.3,189.3 196.9,176.8 197.5,157 198,155.4 198.6,189.3 199.2,189.1 199.7,166.2 200.3,157 200.9,176.8 201.5,167.6 202,164.6 202.6,164.3 203.2,166 203.8,167.9 204.3,189.1 204.9,166.2 205.5,189.1 206.1,146.4 206.6,167.6 207.2,178.5 207.8,157.3 208.3,187.7 208.9,178.5 209.5,178.7 210.1,185.5 210.6,178.5 211.2,167.9 211.8,157.3 212.4,208.9 212.9,178.5 213.5,157.3 214.1,167.6 214.7,178.7 215.2,167.6 215.8,155.4 216.4,178.5 216.9,176.8 217.5,166 218.1,155.4 218.7,210.8 219.2,189.3 219.8,187.7 220.4,189.1 221,176.8 221.5,157 222.1,167.9 222.7,178.5 223.3,157 223.8,176.8 224.4,157.3 225,187.4 225.5,166.2 226.1,178.5 226.7,155.4 227.3,167.6 227.8,157 228.4,157 229,178.5 229.6,157 230.1,167.9 230.7,178.5 231.3,167.9 231.9,167.9 232.4,198 233,210.8 233.6,157 234.1,189.1 234.7,187.7 235.3,157 235.9,210.5 236.4,176.8 237,155.6 237.6,155.4 238.2,157 238.7,167.9 239.3,232.3 239.9,174.9 240.5,166 241,189.3 241.6,167.9 242.2,166.2 242.7,157 243.3,155.6 243.9,157 244.5,157.3 245,167.9 245.6,167.9 246.2,178.5 246.8,178.5 247.3,185.8 247.9,166 248.5,167.9 249.1,155.4 249.6,178.7 250.2,178.5 250.8,178.5 251.4,155.4 251.9,178.5 252.5,189.3 253.1,144.8 253.6,155.4 254.2,175.2 254.8,196.4 255.4,146.7 255.9,167.9 256.5,178.5 257.1,166.2 257.7,157.3 258.2,167.9 258.8,167.6 259.4,178.5 260,166.2 260.5,157 261.1,189.1 261.7,187.7 262.2,175.2 262.8,178.5 263.4,176.8 264,157.3 264.5,176.8 265.1,178.5 265.7,189.3 266.3,166.2 266.8,221.4 267.4,221.4 268,166 268.6,178.5 269.1,178.7 269.7,166 270.3,157.3 270.8,187.4 271.4,178.5 272,157.3 272.6,210.5 273.1,167.9 273.7,178.5 274.3,157.3 274.9,176.8 275.4,157 276,167.9 276.6,157.3 277.2,166 277.7,144.8 278.3,178.5 278.9,166 279.4,166.2 280,189.1 280.6,167.9 281.2,157 281.7,157 282.3,178.5 282.9,178.5 283.5,155.6 284,189.3 284.6,176.8 285.2,167.9 285.8,166.2 286.3,155.4 286.9,178.5 287.5,178.5 288,176.8 288.6,178.5 289.2,189.1 289.8,166.2 290.3,167.6 290.9,187.4 291.5,189.3 292.1,166 292.6,178.5 293.2,210.5 293.8,157.3 294.4,178.5 294.9,167.9 295.5,210.5 296.1,167.9 296.6,178.5 297.2,166.2 297.8,178.5 298.4,189.3 298.9,153.7 299.5,198 300.1,176.8 300.7,157.3 301.2,178.5 301.8,178.5 302.4,155.4 303,178.5 303.5,189.1 304.1,178.5 304.7,176.8 305.3,178.7 305.8,166 306.4,178.5 307,166 307.5,167.6 308.1,167.9 308.7,178.5 309.3,166.2 309.8,167.6 310.4,167.9 311,157 311.6,157 312.1,208.9 312.7,157.3 313.3,155.6 313.9,178.5 314.4,196.4 315,155.4 315.6,155.4 316.1,178.7 316.7,167.9 317.3,167.9 317.9,167.9 318.4,167.6 319,178.5 319.6,166 320.2,146.4 320.7,189.1 321.3,187.7 321.9,198 322.5,167.6 323,166 323.6,144.8 324.2,187.7 324.7,167.6 325.3,155.4 325.9,157 326.5,167.9 327,176.8 327.6,178.5 328.2,178.5 328.8,153.7 329.3,164.3 329.9,210.5 330.5,167.9 331.1,178.5 331.6,155.4 332.2,178.7 332.8,157 333.3,178.7 333.9,144.8 334.5,176.8 335.1,189.1 335.6,157.3 336.2,178.7 336.8,174.9 337.4,166 337.9,146.4 338.5,167.6 339.1,176.8 339.7,176.8 340.2,178.5 340.8,157 341.4,178.5 341.9,155.4 342.5,178.5 343.1,157.3 343.7,177.1 344.2,155.4 344.8,187.4 345.4,144.8 346,157 346.5,157 347.1,157.3 347.7,167.9 348.3,157.3 348.8,167.6 349.4,189.1 350,167.9 350.5,189.3 351.1,189.3 351.7,187.2 352.3,189.3 352.8,157.3 353.4,157.3 354,210.5 354.6,178.5 355.1,157.3 355.7,157 356.3,167.9 356.9,157 357.4,176.6 358,189.1 358.6,167.9 359.1,185.8 359.7,157 360.3,157 360.9,157 361.4,178.5 362,144.8 362.6,166.2 363.2,157.3 363.7,167.6 364.3,167.9 364.9,189.1 365.5,157.3 366,178.7 366.6,176.8 367.2,157.3 367.8,157.3 368.3,167.6 368.9,155.4 369.5,157.3 370,208.9 370.6,189.3 371.2,189.1 371.8,178.5 372.3,157 372.9,157 373.5,200.2 374.1,198 374.6,167.9 375.2,189.3 375.8,157.3 376.4,176.8 376.9,167.9 377.5,157 378.1,146.4 378.6,157.3 379.2,155.4 379.8,157 380.4,146.4 380.9,199.9 381.5,164.1 382.1,178.5 382.7,157 383.2,144.8 383.8,178.5 384.4,189.3 385,157 385.5,178.5 386.1,157 386.7,167.9 387.2,167.6 387.8,157 388.4,221.7 389,187.4 389.5,189.1 390.1,167.9 390.7,167.9 391.3,167.9 391.8,167.9 392.4,167.9 393,178.5 393.6,146.4 394.1,178.5 394.7,167.9 395.3,167.6 395.8,153.7 396.4,166.2 397,176.8 397.6,167.9 398.1,157.3 398.7,167.6 399.3,167.9 399.9,157 400.4,189.3 401,167.9 401.6,157 402.2,144.5 402.7,210.5 403.3,178.7 403.9,155.4 404.4,167.9 405,157 405.6,146.4 406.2,178.5 406.7,144.8 407.3,167.9 407.9,146.4 408.5,157 409,155.6 409.6,157 410.2,155.4 410.8,167.9 411.3,198 411.9,157.3 412.5,167.6 413,167.9 413.6,167.6 414.2,157 414.8,157 415.3,144.8 415.9,157 416.5,157 417.1,144.8 417.6,157 418.2,178.5 418.8,166 419.4,157.3 419.9,178.5 420.5,167.9 421.1,167.9 421.7,167.9 422.2,178.5 422.8,167.9 423.4,189.3 423.9,157.3 424.5,157 425.1,167.9 425.7,164.3 426.2,176.6 426.8,167.9 427.4,157.3 428,189.1 428.5,167.9 429.1,157 429.7,157.3 430.3,167.9 430.8,167.9 431.4,157 432,157 432.5,167.9 433.1,189.6 433.7,196.4 434.3,157.3 434.8,166.2 435.4,157 436,157 436.6,178.5 437.1,178.5 437.7,178.7 438.3,189.3 438.9,167.6 439.4,157 440,178.5 440.6,221.7 441.1,176.8 441.7,155.4 442.3,189.1 442.9,157 443.4,157 444,167.9 444.6,157 445.2,157.3 445.7,176.8 446.3,167.9 446.9,167.9 447.5,146.4 448,189.3 448.6,176.6 449.2,167.9 449.7,157 450.3,146.4 450.9,157 451.5,167.9 452,178.5 452.6,167.9 453.2,167.9 453.8,189.3 454.3,155.4 454.9,177.1 455.5,166 456.1,178.7 456.6,167.6 457.2,178.5 457.8,144.8 458.3,167.9 458.9,157 459.5,167.9 460.1,167.9 460.6,157 461.2,157 461.8,166 462.4,189.3 462.9,176.8 463.5,178.5 464.1,167.9 464.7,157 465.2,178.5 465.8,167.9 466.4,178.5 466.9,155.4 467.5,157 468.1,167.6 468.7,189.3 469.2,167.9 469.8,155.6 470.4,176.8 471,144.8 471.5,155.6 472.1,178.5 472.7,167.9 473.3,189.1 473.8,157.3 474.4,167.9 475,189.1 475.6,157.3 476.1,167.9 476.7,178.7 477.3,167.9 477.8,198.3 478.4,157 479,146.4 479.6,167.9 480.1,157 480.7,157 481.3,189.1 481.9,189.3 482.4,167.9 483,178.5 483.6,167.9 484.2,210.5 484.7,157.3 485.3,155.4 485.9,178.5 486.4,157.3 487,167.9 487.6,166.2 488.2,178.5 488.7,146.4 489.3,178.5 489.9,176.8 490.5,167.9 491,167.9 491.6,167.6 492.2,187.7 492.8,187.4 493.3,167.9 493.9,157 494.5,210.5 495,167.6 495.6,166 496.2,166 496.8,155.4 497.3,157 497.9,178.5 498.5,166 499.1,178.5 499.6,167.9 500.2,196.4 500.8,167.9 501.4,157.3 501.9,178.7 502.5,167.9 503.1,178.5 503.6,176.8 504.2,167.9 504.8,157 505.4,166 505.9,167.9 506.5,189.3 507.1,167.9 507.7,166 508.2,155.4 508.8,166.2 509.4,155.6 510,167.9 510.5,166 511.1,178.5 511.7,221.4 512.2,146.4 512.8,178.5 513.4,167.9 514,176.8 514.5,162.7 515.1,164.1 515.7,210.5 516.3,167.9 516.8,155.6 517.4,167.6 518,155.4 518.6,189.3 519.1,210.8 519.7,178.5 520.3,155.4 520.8,155.4 521.4,167.9 522,189.6 522.6,166 523.1,144.8 523.7,157 524.3,167.9 524.9,157.3 525.4,178.7 526,146.4 526.6,157 527.2,157 527.7,167.6 528.3,167.9 528.9,178.5 529.4,199.9 530,174.9 530.6,167.9 531.2,167.9 531.7,155.4 532.3,157.3 532.9,210.5 533.5,167.9 534,157.3 534.6,157.3 535.2,167.6 535.8,210.5 536.3,157 536.9,177.1 537.5,175.2 538.1,166 538.6,155.4 539.2,146.4 539.8,157 540.3,178.5 540.9,167.9 541.5,178.5 542.1,157.3 542.6,166.2 543.2,157.3 543.8,189.3 544.4,164.3 544.9,174.9 545.5,167.9 546.1,167.9 546.7,178.5 547.2,167.9 547.8,166.2 548.4,178.5 548.9,157 549.5,176.8 550.1,167.9 550.7,178.5 551.2,167.9 551.8,199.9 552.4,176.6 553,167.9 553.5,157 554.1,157 554.7,157.3 555.3,167.9 555.8,178.5 556.4,155.4 557,155.4 557.5,187.7 558.1,189.1 558.7,157.3 559.3,189.3 559.8,155.1 560.4,189.3 561,144.8 561.6,189.3 562.1,167.9 562.7,167.6 563.3,178.5 563.9,167.9 564.4,178.5 565,157 565.6,157.3 566.1,157 566.7,167.9 567.3,153.7 567.9,189.1 568.4,189.3 569,157.3 569.6,176.8 570.2,178.5 570.7,178.5 571.3,157.3 571.9,155.6 572.5,167.9 573,157 573.6,167.6 574.2,177.1 574.7,166 575.3,187.4 575.9,178.5 576.5,189.3 577,157 577.6,157.3 578.2,157 578.8,157 579.3,167.6 579.9,157 580.5,189.1 581.1,166.2 581.6,189.3 582.2,166 582.8,166.2 583.3,167.9 583.9,178.5 584.5,157 585.1,144.8 585.6,176.8 586.2,178.7 586.8,157.3 587.4,144.8 587.9,178.5 588.5,167.9 589.1,178.7 589.7,164.1 590.2,167.6 590.8,157 591.4,167.6 592,167.9 592.5,167.6 593.1,178.5 593.7,167.9 594.2,157 594.8,166 595.4,178.5 596,167.9 596.5,166.2 597.1,166 597.7,167.9 598.3,157.3 598.8,155.4 599.4,178.5 600,167.9 600.6,167.9 601.1,167.9 601.7,157.3 602.3,146.4 602.8,187.4 603.4,189.1 604,187.7 604.6,166 605.1,166.2 605.7,157 606.3,189.1 606.9,146.4 607.4,157.3 608,178.5 608.6,189.1 609.2,189.3 609.7,178.5 610.3,157 610.9,157.3 611.4,207.3 612,166 612.6,176.8 613.2,178.5 613.7,178.5 614.3,178.7 614.9,178.5 615.5,176.6 616,178.5 616.6,167.9 617.2,176.8 617.8,178.5 618.3,166.2 " />
</g>

<g fill="none" stroke="#000000" stroke-opacity="1" stroke-width="1" stroke-linecap="square" stroke-linejoin="bevel" transform="matrix(1.00313,0,0,1.00313,0,0)"
font-family="Ubuntu" font-size="11" font-weight="400" font-style="normal" 
>
</g>

<g fill="none" stroke="#000000" stroke-opacity="1" stroke-width="1" stroke-linecap="square" stroke-linejoin="bevel" transform="matrix(1.00313,0,0,1.00313,462.441,63.6984)"
font-family="Ubuntu" font-size="11" font-weight="400" font-style="normal" 
>
</g>

<g fill="none" stroke="#000000" stroke-opacity="1" stroke-width="1" stroke-linecap="square" stroke-linejoin="bevel" transform="matrix(1.00313,0,0,1.00313,462.441,63.6984)"
font-family="Ubuntu" font-size="11" font-weight="400" font-style="normal" 
>
</g>

<g fill="none" stroke="#000000" stroke-opacity="1" stroke-width="1" stroke-linecap="square" stroke-linejoin="bevel" transform="matrix(1.00313,0,0,1.00313,462.441,63.6984)"
font-family="Ubuntu" font-size="11" font-weight="400" font-style="normal" 
>
</g>

<g fill="none" stroke="#000000" stroke-opacity="1" stroke-width="1" stroke-linecap="square" stroke-linejoin="bevel" transform="matrix(1.00313,0,0,1.00313,462.441,63.6984)"
font-family="Ubuntu" font-size="11" font-weight="400" font-style="normal" 
>
</g>

<g fill="none" stroke="#000000" stroke-opacity="1" stroke-width="1" stroke-linecap="square" stroke-linejoin="bevel" transform="matrix(1.00313,0,0,1.00313,462.441,63.6984)"
font-family="Ubuntu" font-size="11" font-weight="400" font-style="normal" 
>
</g>

<g fill="none" stroke="#000000" stroke-opacity="1" stroke-width="1" stroke-linecap="square" stroke-linejoin="bevel" transform="matrix(1.00313,0,0,1.00313,462.441,63.6984)"
font-family="Sans" font-size="9" font-weight="400" font-style="normal" 
>
<text fill="#000000" fill-opacity="1" stroke="none" xml:space="preserve" x="0" y="0" font-family="Sans" font-size="9" font-weight="400" font-style="normal" 
 >2m zon in de rug</text>
</g>

<g fill="none" stroke="#000000" stroke-opacity="1" stroke-width="1" stroke-linecap="square" stroke-linejoin="bevel" transform="matrix(1.00313,0,0,1.00313,462.441,63.6984)"
font-family="Ubuntu" font-size="11" font-weight="400" font-style="normal" 
>
</g>

<g fill="none" stroke="#000000" stroke-opacity="1" stroke-width="1" stroke-linecap="square" stroke-linejoin="bevel" transform="matrix(1.00313,0,0,1.00313,0,0)"
font-family="Ubuntu" font-size="11" font-weight="400" font-style="normal" 
>
</g>

<g fill="none" stroke="#56b4e9" stroke-opacity="1" stroke-width="1" stroke-linecap="round" stroke-linejoin="round" transform="matrix(1.00313,0,0,1.00313,0,0)"
font-family="Ubuntu" font-size="11" font-weight="400" font-style="normal" 
>
<path vector-effect="none" fill-rule="evenodd" d="M570.5,58.5 L604.5,58.5"/>
</g>

<g fill="none" stroke="#000000" stroke-opacity="1" stroke-width="1" stroke-linecap="square" stroke-linejoin="bevel" transform="matrix(1.00313,0,0,1.00313,0,0)"
font-family="Ubuntu" font-size="11" font-weight="400" font-style="normal" 
>
</g>

<g fill="none" stroke="#000000" stroke-opacity="1" stroke-width="1" stroke-linecap="square" stroke-linejoin="bevel" transform="matrix(1.00313,0,0,1.00313,0,0)"
font-family="Ubuntu" font-size="11" font-weight="400" font-style="normal" 
>
</g>

<g fill="none" stroke="#000000" stroke-opacity="1" stroke-width="1" stroke-linecap="square" stroke-linejoin="bevel" transform="matrix(1.00313,0,0,1.00313,0,0)"
font-family="Ubuntu" font-size="11" font-weight="400" font-style="normal" 
>
</g>

<g fill="none" stroke="#000000" stroke-opacity="1" stroke-width="1" stroke-linecap="square" stroke-linejoin="bevel" transform="matrix(1.00313,0,0,1.00313,0,0)"
font-family="Ubuntu" font-size="11" font-weight="400" font-style="normal" 
>
</g>

<g fill="none" stroke="#56b4e9" stroke-opacity="1" stroke-width="1" stroke-linecap="round" stroke-linejoin="round" transform="matrix(1.00313,0,0,1.00313,0,0)"
font-family="Ubuntu" font-size="11" font-weight="400" font-style="normal" 
>
<polyline fill="none" vector-effect="none" points="45.5,91.5 45.5,91.5 46.1,112.7 46.6,97.7 47.2,108.3 47.8,102.1 48.4,123.6 48.9,100.2 49.5,108.3 50.1,97.7 50.7,108.3 51.2,97.7 51.8,97.7 52.4,97.7 53,97.7 53.5,98 54.1,108.6 54.7,97.7 55.2,87.1 55.8,94.5 56.4,90.4 57,108.6 57.5,108.3 58.1,108.3 58.7,108.3 59.3,118.9 59.8,108.6 60.4,108.6 61,97.7 61.6,87.1 62.1,97.7 62.7,108.3 63.3,113.8 63.8,101.3 64.4,108.6 65,108.6 65.6,108.6 66.1,108.6 66.7,97.7 67.3,97.7 67.9,108.3 68.4,119.2 69,108.6 69.6,108.3 70.2,108.6 70.7,94.2 71.3,101.3 71.9,86.9 72.4,91.2 73,97.7 73.6,108.3 74.2,108.6 74.7,108.6 75.3,97.7 75.9,101.8 76.5,97.7 77,97.7 77.6,97.7 78.2,103.4 78.8,90.7 79.3,97.7 79.9,97.7 80.5,97.7 81.1,108.6 81.6,108.6 82.2,112.7 82.8,108.6 83.3,119.2 83.9,91.2 84.5,119.2 85.1,108.3 85.6,115.7 86.2,100.2 86.8,91.2 87.4,108.6 87.9,86.9 88.5,97.7 89.1,87.1 89.7,76.3 90.2,86.9 90.8,76.3 91.4,87.1 91.9,97.7 92.5,87.1 93.1,91.5 93.7,100.2 94.2,86.9 94.8,108.3 95.4,87.1 96,97.7 96.5,97.7 97.1,97.7 97.7,87.1 98.3,86.9 98.8,86.9 99.4,76.3 100,97.5 100.5,92.6 101.1,90.7 101.7,97.7 102.3,97.7 102.8,86.9 103.4,108.6 104,97.7 104.6,87.1 105.1,98 105.7,86.9 106.3,101.8 106.9,76.3 107.4,91.5 108,103.2 108.6,80.1 109.1,97.7 109.7,97.7 110.3,97.7 110.9,108.6 111.4,98 112,86.9 112.6,97.5 113.2,97.7 113.7,97.7 114.3,97.7 114.9,71.4 115.5,69.2 116,108.6 116.6,97.7 117.2,97.7 117.7,97.7 118.3,112.4 118.9,91.2 119.5,97.7 120,108.6 120.6,97.7 121.2,87.1 121.8,87.1 122.3,103.2 122.9,79.8 123.5,76.3 124.1,108.3 124.6,97.7 125.2,97.7 125.8,87.1 126.3,97.7 126.9,108.3 127.5,97.7 128.1,97.7 128.6,87.1 129.2,80.6 129.8,92.6 130.4,90.4 130.9,97.7 131.5,97.7 132.1,97.7 132.7,97.7 133.2,119.2 133.8,80.6 134.4,97.5 135,108.3 135.5,87.1 136.1,97.7 136.7,97.7 137.2,92.6 137.8,100.2 138.4,87.1 139,87.1 139.5,91.2 140.1,97.7 140.7,97.7 141.3,80.3 141.8,80.6 142.4,108.3 143,91.2 143.6,108.3 144.1,87.1 144.7,92.6 145.3,68.9 145.8,87.1 146.4,87.1 147,76.3 147.6,80.3 148.1,76.5 148.7,87.1 149.3,76.3 149.9,76.5 150.4,76.3 151,76.3 151.6,91.2 152.2,71.4 152.7,79.8 153.3,80.6 153.9,91.2 154.4,87.1 155,76.3 155.6,97.7 156.2,87.1 156.7,87.1 157.3,86.9 157.9,87.1 158.5,87.1 159,86.9 159.6,71.1 160.2,90.7 160.8,87.1 161.3,97.7 161.9,97.7 162.5,76.3 163,76.5 163.6,65.7 164.2,87.1 164.8,80.6 165.3,80.6 165.9,80.3 166.5,80.6 167.1,82 167.6,69.2 168.2,76.3 168.8,86.9 169.4,69.7 169.9,65.7 170.5,76.5 171.1,87.1 171.6,76.5 172.2,76.3 172.8,87.1 173.4,87.1 173.9,76.3 174.5,60.5 175.1,90.7 175.7,87.1 176.2,76.3 176.8,76.3 177.4,87.1 178,97.7 178.5,97.7 179.1,76.5 179.7,86.9 180.2,76.3 180.8,80.6 181.4,76.3 182,81.7 182.5,80.1 183.1,86.9 183.7,97.7 184.3,76.3 184.8,97.7 185.4,108.6 186,97.7 186.6,80.3 187.1,90.9 187.7,76.3 188.3,87.1 188.9,97.5 189.4,81.7 190,100.2 190.6,86.9 191.1,91.2 191.7,76.3 192.3,86.9 192.9,87.1 193.4,86.9 194,87.1 194.6,76.5 195.2,91.2 195.7,87.1 196.3,76.5 196.9,92.6 197.5,79.8 198,86.9 198.6,76.3 199.2,97.7 199.7,86.9 200.3,87.1 200.9,76.5 201.5,76.3 202,87.1 202.6,86.9 203.2,76.3 203.8,108.6 204.3,70 204.9,79.8 205.5,87.1 206.1,97.7 206.6,54.8 207.2,65.7 207.8,76.5 208.3,54.8 208.9,80.3 209.5,65.7 210.1,87.1 210.6,48.3 211.2,76.3 211.8,71.1 212.4,69.2 212.9,65.7 213.5,80.6 214.1,76.3 214.7,65.7 215.2,76.5 215.8,97.7 216.4,69.7 216.9,65.4 217.5,86.9 218.1,65.7 218.7,76.3 219.2,71.4 219.8,58.3 220.4,76.3 221,76.3 221.5,54.8 222.1,65.7 222.7,59.1 223.3,87.1 223.8,91.2 224.4,87.1 225,76.3 225.5,54.8 226.1,76.3 226.7,60.5 227.3,69.2 227.8,65.7 228.4,76.3 229,76.3 229.6,69.7 230.1,55.1 230.7,76.3 231.3,65.7 231.9,76.3 232.4,65.7 233,70 233.6,65.7 234.1,81.7 234.7,58.6 235.3,65.7 235.9,76.3 236.4,76.3 237,54.8 237.6,65.7 238.2,76.5 238.7,65.7 239.3,69.7 239.9,65.7 240.5,76.3 241,76.3 241.6,62.1 242.2,58.6 242.7,76.3 243.3,76.5 243.9,76.3 244.5,76.3 245,76.5 245.6,65.4 246.2,97.7 246.8,87.1 247.3,76.3 247.9,76.3 248.5,71.1 249.1,80.1 249.6,87.1 250.2,80.6 250.8,76.3 251.4,69.7 251.9,76.3 252.5,76.5 253.1,65.7 253.6,65.7 254.2,65.7 254.8,76.3 255.4,65.7 255.9,71.1 256.5,78.7 257.1,65.7 257.7,69.7 258.2,65.7 258.8,65.7 259.4,65.7 260,76.3 260.5,55.1 261.1,87.1 261.7,76.3 262.2,76.3 262.8,97.7 263.4,87.7 264,68.9 264.5,76.3 265.1,80.6 265.7,76.5 266.3,87.1 266.8,76.5 267.4,65.7 268,65.7 268.6,87.1 269.1,87.1 269.7,65.7 270.3,80.6 270.8,73 271.4,79.8 272,65.7 272.6,65.7 273.1,65.7 273.7,65.7 274.3,76.3 274.9,76.3 275.4,65.7 276,76.3 276.6,76.3 277.2,76.5 277.7,76.3 278.3,71.4 278.9,89.3 279.4,87.1 280,54.8 280.6,76.3 281.2,76.3 281.7,65.7 282.3,76.3 282.9,55.1 283.5,65.4 284,97.7 284.6,87.1 285.2,65.7 285.8,60.5 286.3,58.3 286.9,76.3 287.5,76.3 288,70 288.6,76.3 289.2,87.1 289.8,69.7 290.3,76.3 290.9,87.1 291.5,76.5 292.1,65.7 292.6,76.3 293.2,71.1 293.8,68.9 294.4,65.7 294.9,76.5 295.5,87.1 296.1,55.1 296.6,65.7 297.2,65.4 297.8,54.8 298.4,87.1 298.9,76.5 299.5,69.7 300.1,87.1 300.7,60.5 301.2,69.2 301.8,65.7 302.4,87.1 303,76.3 303.5,76.3 304.1,69.7 304.7,87.1 305.3,86.9 305.8,76.5 306.4,65.4 307,76.3 307.5,87.1 308.1,71.1 308.7,90.4 309.3,65.7 309.8,55.1 310.4,87.1 311,59.1 311.6,76.5 312.1,65.7 312.7,48.5 313.3,69.7 313.9,97.7 314.4,65.7 315,65.4 315.6,60.5 316.1,58.6 316.7,87.1 317.3,76.3 317.9,65.7 318.4,87.1 319,86.9 319.6,76.3 320.2,80.6 320.7,87.1 321.3,76.3 321.9,65.7 322.5,65.7 323,71.1 323.6,69.2 324.2,86.9 324.7,76.3 325.3,65.7 325.9,86.9 326.5,76.5 327,76.3 327.6,97.7 328.2,69.7 328.8,65.7 329.3,48.3 329.9,97.7 330.5,62.4 331.1,69.2 331.6,76.3 332.2,76.5 332.8,65.4 333.3,76.3 333.9,87.1 334.5,76.5 335.1,76.3 335.6,55.1 336.2,76.3 336.8,76.3 337.4,80.3 337.9,71.1 338.5,57.2 339.1,76.3 339.7,65.7 340.2,76.3 340.8,87.1 341.4,87.1 341.9,76.3 342.5,65.7 343.1,87.1 343.7,76.3 344.2,76.3 344.8,76.5 345.4,80.6 346,47.7 346.5,76.5 347.1,54.8 347.7,76.3 348.3,87.1 348.8,76.3 349.4,76.3 350,76.5 350.5,80.6 351.1,76.3 351.7,76.3 352.3,65.7 352.8,71.1 353.4,58.6 354,76.5 354.6,65.7 355.1,76.5 355.7,76.3 356.3,76.3 356.9,76.3 357.4,65.4 358,80.6 358.6,76.3 359.1,65.7 359.7,97.7 360.3,91.5 360.9,58.6 361.4,76.3 362,76.5 362.6,86.9 363.2,65.7 363.7,91.2 364.3,70 364.9,86.9 365.5,76.5 366,65.4 366.6,65.7 367.2,59.1 367.8,62.1 368.3,80.1 368.9,54.8 369.5,76.3 370,76.5 370.6,69.7 371.2,76.5 371.8,65.7 372.3,76.3 372.9,55.1 373.5,76.5 374.1,65.7 374.6,76.3 375.2,92.6 375.8,78.7 376.4,76.3 376.9,87.1 377.5,65.7 378.1,97.7 378.6,65.7 379.2,76.3 379.8,76.3 380.4,76.5 380.9,65.7 381.5,76.3 382.1,76.5 382.7,82 383.2,58.3 383.8,87.1 384.4,76.3 385,59.1 385.5,76.3 386.1,80.6 386.7,55.1 387.2,76.3 387.8,87.1 388.4,65.7 389,76.3 389.5,86.9 390.1,82 390.7,58.3 391.3,65.7 391.8,65.7 392.4,69.7 393,86.9 393.6,97.7 394.1,70 394.7,76.3 395.3,65.7 395.8,69.7 396.4,76.3 397,76.3 397.6,71.1 398.1,58.6 398.7,76.3 399.3,69.7 399.9,70 400.4,76.5 401,69.7 401.6,76.3 402.2,69.7 402.7,86.9 403.3,76.3 403.9,80.6 404.4,87.1 405,60.2 405.6,69.2 406.2,76.3 406.7,76.3 407.3,76.3 407.9,76.3 408.5,76.3 409,87.1 409.6,86.9 410.2,76.3 410.8,65.7 411.3,76.5 411.9,76.3 412.5,71.1 413,58.6 413.6,76.3 414.2,80.6 414.8,76.3 415.3,69.7 415.9,97.7 416.5,65.7 417.1,97.7 417.6,65.7 418.2,65.4 418.8,65.7 419.4,65.7 419.9,73 420.5,69.2 421.1,65.7 421.7,54.8 422.2,86.9 422.8,65.4 423.4,76.3 423.9,65.7 424.5,76.5 425.1,76.3 425.7,76.3 426.2,76.5 426.8,76.3 427.4,66.5 428,79.8 428.5,65.7 429.1,87.1 429.7,87.1 430.3,76.3 430.8,70 431.4,76.3 432,80.3 432.5,86.9 433.1,65.7 433.7,87.1 434.3,76.3 434.8,81.7 435.4,58.6 436,65.7 436.6,65.7 437.1,76.5 437.7,86.9 438.3,65.7 438.9,76.3 439.4,65.7 440,80.6 440.6,86.9 441.1,65.7 441.7,65.7 442.3,71.1 442.9,69.2 443.4,65.7 444,80.6 444.6,65.7 445.2,65.7 445.7,65.4 446.3,65.7 446.9,87.1 447.5,76.3 448,76.3 448.6,76.5 449.2,65.7 449.7,73 450.3,69.2 450.9,65.7 451.5,65.7 452,76.3 452.6,65.7 453.2,76.3 453.8,65.7 454.3,65.7 454.9,87.1 455.5,76.3 456.1,65.7 456.6,70 457.2,71.1 457.8,79.8 458.3,65.7 458.9,65.7 459.5,76.5 460.1,86.9 460.6,76.3 461.2,87.1 461.8,76.3 462.4,76.3 462.9,76.5 463.5,76.3 464.1,76.3 464.7,73 465.2,67.8 465.8,65.7 466.4,76.5 466.9,65.9 467.5,76.3 468.1,69.7 468.7,55.1 469.2,76.3 469.8,65.7 470.4,65.7 471,55.1 471.5,76.3 472.1,73 472.7,58.6 473.3,97.7 473.8,87.1 474.4,80.6 475,76.5 475.6,76.3 476.1,55.1 476.7,65.7 477.3,76.3 477.8,65.7 478.4,76.3 479,86.9 479.6,73 480.1,80.1 480.7,86.9 481.3,59.1 481.9,69.7 482.4,87.1 483,86.9 483.6,54.8 484.2,76.3 484.7,86.9 485.3,76.3 485.9,80.6 486.4,86.9 487,60.5 487.6,69.2 488.2,59.1 488.7,69.7 489.3,80.6 489.9,65.7 490.5,55.1 491,76.5 491.6,76.3 492.2,80.6 492.8,59.1 493.3,76.5 493.9,76.3 494.5,71.4 495,69.2 495.6,69.7 496.2,65.7 496.8,97.7 497.3,76.3 497.9,91.2 498.5,76.3 499.1,76.5 499.6,87.1 500.2,76.5 500.8,65.4 501.4,60.5 501.9,69.2 502.5,80.6 503.1,86.9 503.6,76.3 504.2,65.7 504.8,76.3 505.4,76.3 505.9,87.1 506.5,76.3 507.1,76.3 507.7,80.6 508.2,76.5 508.8,71.1 509.4,79.8 510,76.5 510.5,65.7 511.1,87.1 511.7,80.6 512.2,65.7 512.8,76.5 513.4,65.7 514,76.3 514.5,76.3 515.1,76.3 515.7,76.5 516.3,80.9 516.8,58.3 517.4,87.1 518,76.3 518.6,70 519.1,76.3 519.7,76.5 520.3,76.3 520.8,76.3 521.4,76.5 522,87.1 522.6,76.3 523.1,76.5 523.7,71.1 524.3,47.7 524.9,76.3 525.4,65.7 526,80.3 526.6,65.7 527.2,65.7 527.7,59.1 528.3,65.7 528.9,76.3 529.4,76.3 530,65.7 530.6,76.3 531.2,80.6 531.7,90.4 532.3,76.5 532.9,70 533.5,76.3 534,87.1 534.6,69.7 535.2,76.3 535.8,76.3 536.3,69.7 536.9,80.6 537.5,76.3 538.1,65.7 538.6,62.4 539.2,58.3 539.8,65.7 540.3,80.6 540.9,76.3 541.5,69.7 542.1,87.1 542.6,76.3 543.2,76.3 543.8,69.7 544.4,65.7 544.9,76.5 545.5,65.7 546.1,60.5 546.7,69.2 547.2,65.7 547.8,87.1 548.4,76.5 548.9,65.7 549.5,87.1 550.1,76.3 550.7,59.4 551.2,65.7 551.8,55.1 552.4,76.5 553,76.3 553.5,71.1 554.1,58.6 554.7,76.3 555.3,76.5 555.8,76.3 556.4,76.3 557,65.7 557.5,65.7 558.1,65.7 558.7,76.5 559.3,65.4 559.8,76.3 560.4,76.3 561,73.3 561.6,90.7 562.1,87.1 562.7,76.3 563.3,76.3 563.9,76.3 564.4,59.1 565,86.9 565.6,76.3 566.1,76.3 566.7,76.5 567.3,87.1 567.9,65.7 568.4,60.5 569,80.1 569.6,76.3 570.2,87.1 570.7,59.1 571.3,76.5 571.9,87.1 572.5,76.5 573,86.9 573.6,65.7 574.2,86.9 574.7,65.7 575.3,44.2 575.9,71.1 576.5,69.2 577,76.3 577.6,87.1 578.2,76.3 578.8,76.3 579.3,76.5 579.9,76.3 580.5,87.1 581.1,76.3 581.6,65.7 582.2,87.1 582.8,87.1 583.3,91.2 583.9,79.8 584.5,87.1 585.1,65.7 585.6,65.7 586.2,76.3 586.8,97.7 587.4,76.3 587.9,76.5 588.5,65.7 589.1,76.3 589.7,76.5 590.2,58.9 590.8,91.5 591.4,79.8 592,76.3 592.5,76.3 593.1,59.1 593.7,76.5 594.2,76.3 594.8,87.1 595.4,87.1 596,90.9 596.5,55.1 597.1,76.5 597.7,76.3 598.3,80.6 598.8,69.2 599.4,65.7 600,76.3 600.6,76.5 601.1,76.5 601.7,76.3 602.3,65.7 602.8,65.7 603.4,65.7 604,76.5 604.6,65.7 605.1,65.7 605.7,60.5 606.3,58.6 606.9,76.3 607.4,76.3 608,65.7 608.6,70 609.2,76.3 609.7,54.8 610.3,65.4 610.9,76.3 611.4,65.7 612,87.1 612.6,86.9 613.2,92.6 613.7,69.2 614.3,86.9 614.9,69.7 615.5,76.3 616,87.1 616.6,69.7 617.2,65.7 617.8,86.9 618.3,76.3 " />
</g>

<g fill="none" stroke="#000000" stroke-opacity="1" stroke-width="1" stroke-linecap="square" stroke-linejoin="bevel" transform="matrix(1.00313,0,0,1.00313,0,0)"
font-family="Ubuntu" font-size="11" font-weight="400" font-style="normal" 
>
</g>

<g fill="none" stroke="#000000" stroke-opacity="1" stroke-width="1" stroke-linecap="square" stroke-linejoin="bevel" transform="matrix(1.00313,0,0,1.00313,0,0)"
font-family="Ubuntu" font-size="11" font-weight="400" font-style="normal" 
>
</g>

<g fill="none" stroke="#000000" stroke-opacity="1" stroke-width="1" stroke-linecap="round" stroke-linejoin="round" transform="matrix(1.00313,0,0,1.00313,0,0)"
font-family="Ubuntu" font-size="11" font-weight="400" font-style="normal" 
>
<polyline fill="none" vector-effect="none" points="45.5,15.5 45.5,450.5 618.5,450.5 618.5,15.5 45.5,15.5 " />
</g>

<g fill="none" stroke="#000000" stroke-opacity="1" stroke-width="1" stroke-linecap="square" stroke-linejoin="bevel" transform="matrix(1.00313,0,0,1.00313,0,0)"
font-family="Ubuntu" font-size="11" font-weight="400" font-style="normal" 
>
</g>

<g fill="none" stroke="#000000" stroke-opacity="1" stroke-width="1" stroke-linecap="square" stroke-linejoin="bevel" transform="matrix(1,0,0,1,0,0)"
font-family="Ubuntu" font-size="11" font-weight="400" font-style="normal" 
>
</g>
</g>
</svg>
